0000.000 (0) Opened log file at time: Mon, 17 Sep 2018 21:37:01 +0000 on https://www.jetlitransfer.com
0000.002 (0) UpdraftPlus WordPress backup plugin (https://updraftplus.com): 1.14.3 WP: 4.9.8 PHP: 5.6.37 (cgi-fcgi, Linux jet.jetlitransfer.com 2.6.32-042stab132.1 #1 SMP Wed Jul 11 13:51:30 MSK 2018 x86_64) MySQL: 5.6.40 WPLANG: en_US Server: Apache safe_mode: 0 max_execution_time: 900 memory_limit: 512M (used: 24.9M | 26M) multisite: N openssl: OpenSSL 1.0.2p  14 Aug 2018 mcrypt: Y LANG:  ZipArchive::addFile: Y
0001.418 (0) Free space on disk containing Updraft's temporary directory: 155250.4 MB
0001.422 (0) Tasks: Backup files:  (schedule: manual) Backup DB: 1 (schedule: daily)
0001.424 (0) Processed schedules. Tasks now: Backup files:  Backup DB: 1
0001.459 (0) Requesting semaphore lock (d) (apparently via scheduler: last_scheduled_action_called_at=1537133822, seconds_ago=86400)
0001.492 (0) Set semaphore last lock (d) time to 2018-09-17 21:37:02
0001.493 (0) Semaphore lock (d) complete
0001.502 (0) Backup run: resumption=0, nonce=5386d462a2dc, begun at=1537220221 (1s ago), job type=backup
0001.505 (0) Scheduling a resumption (1) after 300 seconds (1537220522) in case this run gets aborted
0001.572 (0) This backup run is not intended for files - skipping
0001.574 (0) Beginning creation of database dump (WordPress DB)
0001.577 (0) Testing: /usr/bin/mysqldump
0001.868 (0) Output: /*!40103 SET @OLD_TIME_ZONE=@@TIME_ZONE */;\n/*!40103 SET TIME_ZONE='+00:00' */;\n/*!40014 SET @OLD_UNIQUE_CHECKS=@@UNIQUE_CHECKS, UNIQUE_CHECKS=0 */;\n/*!40014 SET @OLD_FOREIGN_KEY_CHECKS=@@FOREIGN_KEY_CHECKS, FOREIGN_KEY_CHECKS=0 */;\n/*!40101 SET @OLD_SQL_MODE=@@SQL_MODE, SQL_MODE='NO_AUTO_VALUE_ON_ZERO' */;\n/*!40111 SET @OLD_SQL_NOTES=@@SQL_NOTES, SQL_NOTES=0 */;\nDROP TABLE IF EXISTS `sg_options`;\n/*!40101 SET @saved_cs_client     = @@character_set_client */;\n/*!40101 SET character_set_client = utf8 */;\nCRE (truncated - 1200 bytes total)
0001.873 (0) Working binary mysqldump found: /usr/bin/mysqldump
0002.324 (0) Table sg_options: Total expected rows (approximate): 1017
0002.478 (0) Table sg_options: Total rows added: 1013 in 0.15 seconds
0002.480 (0) Table sg_options: finishing file (backup_2018-09-17-2137_Jetli_Transfer_5386d462a2dc-db-table-sg_options.table.gz - 302.8 KB)
0002.485 (0) Table sg_users: Total expected rows (approximate): 105
0002.495 (0) Table sg_users: Total rows added: 105 in 0.01 seconds
0002.496 (0) Table sg_users: finishing file (backup_2018-09-17-2137_Jetli_Transfer_5386d462a2dc-db-table-sg_users.table.gz - 6.8 KB)
0002.500 (0) Table sg_usermeta: Total expected rows (approximate): 2748
0002.578 (0) Table sg_usermeta: Total rows added: 2748 in 0.08 seconds
0002.579 (0) Table sg_usermeta: finishing file (backup_2018-09-17-2137_Jetli_Transfer_5386d462a2dc-db-table-sg_usermeta.table.gz - 36.2 KB)
0002.584 (0) Table sg_commentmeta: Total expected rows (approximate): 2
0002.587 (0) Table sg_commentmeta: Total rows added: 2 in 0.00 seconds
0002.588 (0) Table sg_commentmeta: finishing file (backup_2018-09-17-2137_Jetli_Transfer_5386d462a2dc-db-table-sg_commentmeta.table.gz - 0.4 KB)
0002.597 (0) Table sg_comments: Total expected rows (approximate): 870
0002.672 (0) Table sg_comments: Total rows added: 870 in 0.07 seconds
0002.675 (0) Table sg_comments: finishing file (backup_2018-09-17-2137_Jetli_Transfer_5386d462a2dc-db-table-sg_comments.table.gz - 15.4 KB)
0002.685 (0) Table sg_links: Total expected rows (approximate): 0
0002.689 (0) Table sg_links: Total rows added: 0 in 0.00 seconds
0002.690 (0) Table sg_links: finishing file (backup_2018-09-17-2137_Jetli_Transfer_5386d462a2dc-db-table-sg_links.table.gz - 0.4 KB)
0002.695 (0) Table sg_postmeta: Total expected rows (approximate): 20077
0003.039 (0) Table sg_postmeta: binary mysqldump finished (writes: 36) in 0.34 seconds
0003.042 (0) Table sg_postmeta: finishing file (backup_2018-09-17-2137_Jetli_Transfer_5386d462a2dc-db-table-sg_postmeta.table.gz - 479.2 KB)
0003.047 (0) Table sg_posts: Total expected rows (approximate): 1075
0003.250 (0) Table sg_posts: Total rows added: 1075 in 0.20 seconds
0003.252 (0) Table sg_posts: finishing file (backup_2018-09-17-2137_Jetli_Transfer_5386d462a2dc-db-table-sg_posts.table.gz - 89.7 KB)
0003.256 (0) Table sg_term_relationships: Total expected rows (approximate): 415
0003.265 (0) Table sg_term_relationships: Total rows added: 415 in 0.01 seconds
0003.267 (0) Table sg_term_relationships: finishing file (backup_2018-09-17-2137_Jetli_Transfer_5386d462a2dc-db-table-sg_term_relationships.table.gz - 1.6 KB)
0003.273 (0) Table sg_term_taxonomy: Total expected rows (approximate): 133
0003.281 (0) Table sg_term_taxonomy: Total rows added: 133 in 0.01 seconds
0003.283 (0) Table sg_term_taxonomy: finishing file (backup_2018-09-17-2137_Jetli_Transfer_5386d462a2dc-db-table-sg_term_taxonomy.table.gz - 1.3 KB)
0003.289 (0) Table sg_termmeta: Total expected rows (approximate): 81
0003.295 (0) Table sg_termmeta: Total rows added: 81 in 0.00 seconds
0003.297 (0) Table sg_termmeta: finishing file (backup_2018-09-17-2137_Jetli_Transfer_5386d462a2dc-db-table-sg_termmeta.table.gz - 0.9 KB)
0003.302 (0) Table sg_terms: Total expected rows (approximate): 133
0003.310 (0) Table sg_terms: Total rows added: 133 in 0.01 seconds
0003.312 (0) Table sg_terms: finishing file (backup_2018-09-17-2137_Jetli_Transfer_5386d462a2dc-db-table-sg_terms.table.gz - 2 KB)
0003.318 (0) Table sg_woocommerce_order_itemmeta: Total expected rows (approximate): 5304
0003.556 (0) Table sg_woocommerce_order_itemmeta: Total rows added: 5304 in 0.24 seconds
0003.558 (0) Table sg_woocommerce_order_itemmeta: finishing file (backup_2018-09-17-2137_Jetli_Transfer_5386d462a2dc-db-table-sg_woocommerce_order_itemmeta.table.gz - 38.4 KB)
0003.562 (0) Table sg_woocommerce_payment_tokenmeta: Total expected rows (approximate): 8
0003.578 (0) Table sg_woocommerce_payment_tokenmeta: Total rows added: 8 in 0.01 seconds
0003.580 (0) Table sg_woocommerce_payment_tokenmeta: finishing file (backup_2018-09-17-2137_Jetli_Transfer_5386d462a2dc-db-table-sg_woocommerce_payment_tokenmeta.table.gz - 0.5 KB)
0003.585 (0) Table sg_yoast_seo_links: Total expected rows (approximate): 106
0003.594 (0) Table sg_yoast_seo_links: Total rows added: 106 in 0.01 seconds
0003.595 (0) Table sg_yoast_seo_links: finishing file (backup_2018-09-17-2137_Jetli_Transfer_5386d462a2dc-db-table-sg_yoast_seo_links.table.gz - 1.4 KB)
0003.599 (0) Table sg_yoast_seo_meta: Total expected rows (approximate): 208
0003.605 (0) Table sg_yoast_seo_meta: Total rows added: 208 in 0.00 seconds
0003.606 (0) Table sg_yoast_seo_meta: finishing file (backup_2018-09-17-2137_Jetli_Transfer_5386d462a2dc-db-table-sg_yoast_seo_meta.table.gz - 0.9 KB)
0003.610 (0) Table sg_defender_lockout: Total expected rows (approximate): 0
0003.613 (0) Table sg_defender_lockout: Total rows added: 0 in 0.00 seconds
0003.614 (0) Table sg_defender_lockout: finishing file (backup_2018-09-17-2137_Jetli_Transfer_5386d462a2dc-db-table-sg_defender_lockout.table.gz - 0.4 KB)
0003.619 (0) Table sg_defender_lockout_log: Total expected rows (approximate): 0
0003.621 (0) Table sg_defender_lockout_log: Total rows added: 0 in 0.00 seconds
0003.623 (0) Table sg_defender_lockout_log: finishing file (backup_2018-09-17-2137_Jetli_Transfer_5386d462a2dc-db-table-sg_defender_lockout_log.table.gz - 0.4 KB)
0003.627 (0) Table sg_ecp_x_category: Total expected rows (approximate): 7
0003.630 (0) Table sg_ecp_x_category: Total rows added: 7 in 0.00 seconds
0003.631 (0) Table sg_ecp_x_category: finishing file (backup_2018-09-17-2137_Jetli_Transfer_5386d462a2dc-db-table-sg_ecp_x_category.table.gz - 0.5 KB)
0003.636 (0) Table sg_failed_jobs: Total expected rows (approximate): 0
0003.639 (0) Table sg_failed_jobs: Total rows added: 0 in 0.00 seconds
0003.641 (0) Table sg_failed_jobs: finishing file (backup_2018-09-17-2137_Jetli_Transfer_5386d462a2dc-db-table-sg_failed_jobs.table.gz - 0.3 KB)
0003.645 (0) Table sg_mailchimp_carts: Total expected rows (approximate): 0
0003.647 (0) Table sg_mailchimp_carts: Total rows added: 0 in 0.00 seconds
0003.649 (0) Table sg_mailchimp_carts: finishing file (backup_2018-09-17-2137_Jetli_Transfer_5386d462a2dc-db-table-sg_mailchimp_carts.table.gz - 0.3 KB)
0003.653 (0) Table sg_masterslider_options: Total expected rows (approximate): 6
0003.673 (0) Table sg_masterslider_options: Total rows added: 6 in 0.02 seconds
0003.676 (0) Table sg_masterslider_options: finishing file (backup_2018-09-17-2137_Jetli_Transfer_5386d462a2dc-db-table-sg_masterslider_options.table.gz - 6.4 KB)
0003.683 (0) Table sg_masterslider_sliders: Total expected rows (approximate): 2
0003.687 (0) Table sg_masterslider_sliders: Total rows added: 2 in 0.00 seconds
0003.689 (0) Table sg_masterslider_sliders: finishing file (backup_2018-09-17-2137_Jetli_Transfer_5386d462a2dc-db-table-sg_masterslider_sliders.table.gz - 6 KB)
0003.694 (0) Table sg_queue: Total expected rows (approximate): 0
0003.698 (0) Table sg_queue: Total rows added: 0 in 0.00 seconds
0003.700 (0) Table sg_queue: finishing file (backup_2018-09-17-2137_Jetli_Transfer_5386d462a2dc-db-table-sg_queue.table.gz - 0.3 KB)
0003.707 (0) Table sg_revslider_css: Total expected rows (approximate): 109
0003.738 (0) Table sg_revslider_css: Total rows added: 109 in 0.03 seconds
0003.741 (0) Table sg_revslider_css: finishing file (backup_2018-09-17-2137_Jetli_Transfer_5386d462a2dc-db-table-sg_revslider_css.table.gz - 4.8 KB)
0003.748 (0) Table sg_revslider_layer_animations: Total expected rows (approximate): 0
0003.753 (0) Table sg_revslider_layer_animations: Total rows added: 0 in 0.00 seconds
0003.754 (0) Table sg_revslider_layer_animations: finishing file (backup_2018-09-17-2137_Jetli_Transfer_5386d462a2dc-db-table-sg_revslider_layer_animations.table.gz - 0.3 KB)
0003.758 (0) Table sg_revslider_navigations: Total expected rows (approximate): 0
0003.761 (0) Table sg_revslider_navigations: Total rows added: 0 in 0.00 seconds
0003.762 (0) Table sg_revslider_navigations: finishing file (backup_2018-09-17-2137_Jetli_Transfer_5386d462a2dc-db-table-sg_revslider_navigations.table.gz - 0.3 KB)
0003.766 (0) Table sg_revslider_sliders: Total expected rows (approximate): 1
0003.770 (0) Table sg_revslider_sliders: Total rows added: 1 in 0.00 seconds
0003.771 (0) Table sg_revslider_sliders: finishing file (backup_2018-09-17-2137_Jetli_Transfer_5386d462a2dc-db-table-sg_revslider_sliders.table.gz - 2.9 KB)
0003.775 (0) Table sg_revslider_slides: Total expected rows (approximate): 1
0003.803 (0) Table sg_revslider_slides: Total rows added: 1 in 0.03 seconds
0003.805 (0) Table sg_revslider_slides: finishing file (backup_2018-09-17-2137_Jetli_Transfer_5386d462a2dc-db-table-sg_revslider_slides.table.gz - 7.2 KB)
0003.809 (0) Table sg_revslider_static_slides: Total expected rows (approximate): 1
0003.812 (0) Table sg_revslider_static_slides: Total rows added: 1 in 0.00 seconds
0003.813 (0) Table sg_revslider_static_slides: finishing file (backup_2018-09-17-2137_Jetli_Transfer_5386d462a2dc-db-table-sg_revslider_static_slides.table.gz - 1.7 KB)
0003.817 (0) Table sg_smush_dir_images: Total expected rows (approximate): 0
0003.819 (0) Table sg_smush_dir_images: Total rows added: 0 in 0.00 seconds
0003.820 (0) Table sg_smush_dir_images: finishing file (backup_2018-09-17-2137_Jetli_Transfer_5386d462a2dc-db-table-sg_smush_dir_images.table.gz - 0.4 KB)
0003.825 (0) Table sg_wcpdf_invoice_number: Total expected rows (approximate): 6
0003.841 (0) Table sg_wcpdf_invoice_number: Total rows added: 6 in 0.01 seconds
0003.844 (0) Table sg_wcpdf_invoice_number: finishing file (backup_2018-09-17-2137_Jetli_Transfer_5386d462a2dc-db-table-sg_wcpdf_invoice_number.table.gz - 0.5 KB)
0003.851 (0) Table sg_wfBadLeechers: Total expected rows (approximate): 0
0003.855 (0) Table sg_wfBadLeechers: Total rows added: 0 in 0.00 seconds
0003.858 (0) Table sg_wfBadLeechers: finishing file (backup_2018-09-17-2137_Jetli_Transfer_5386d462a2dc-db-table-sg_wfBadLeechers.table.gz - 0.3 KB)
0003.865 (0) Table sg_wfBlockedCommentLog: Total expected rows (approximate): 0
0003.869 (0) Table sg_wfBlockedCommentLog: Total rows added: 0 in 0.00 seconds
0003.871 (0) Table sg_wfBlockedCommentLog: finishing file (backup_2018-09-17-2137_Jetli_Transfer_5386d462a2dc-db-table-sg_wfBlockedCommentLog.table.gz - 0.3 KB)
0003.878 (0) Table sg_wfBlockedIPLog: Total expected rows (approximate): 0
0003.883 (0) Table sg_wfBlockedIPLog: Total rows added: 0 in 0.00 seconds
0003.885 (0) Table sg_wfBlockedIPLog: finishing file (backup_2018-09-17-2137_Jetli_Transfer_5386d462a2dc-db-table-sg_wfBlockedIPLog.table.gz - 0.3 KB)
0003.892 (0) Table sg_wfBlocks7: Total expected rows (approximate): 0
0003.896 (0) Table sg_wfBlocks7: Total rows added: 0 in 0.00 seconds
0003.910 (0) Table sg_wfBlocks7: finishing file (backup_2018-09-17-2137_Jetli_Transfer_5386d462a2dc-db-table-sg_wfBlocks7.table.gz - 0.4 KB)
0003.917 (0) Table sg_wfConfig: Total expected rows (approximate): 208
0004.018 (0) Table sg_wfConfig: Total rows added: 233 in 0.10 seconds
0004.020 (0) Table sg_wfConfig: finishing file (backup_2018-09-17-2137_Jetli_Transfer_5386d462a2dc-db-table-sg_wfConfig.table.gz - 1136.7 KB)
0004.024 (0) Table sg_wfCrawlers: Total expected rows (approximate): 34
0004.029 (0) Table sg_wfCrawlers: Total rows added: 34 in 0.00 seconds
0004.030 (0) Table sg_wfCrawlers: finishing file (backup_2018-09-17-2137_Jetli_Transfer_5386d462a2dc-db-table-sg_wfCrawlers.table.gz - 0.9 KB)
0004.036 (0) Table sg_wfFileChanges: Total expected rows (approximate): 0
0004.038 (0) Table sg_wfFileChanges: Total rows added: 0 in 0.00 seconds
0004.040 (0) Table sg_wfFileChanges: finishing file (backup_2018-09-17-2137_Jetli_Transfer_5386d462a2dc-db-table-sg_wfFileChanges.table.gz - 0.3 KB)
0004.045 (0) Table sg_wfFileMods: Total expected rows (approximate): 9932
0004.242 (0) Table sg_wfFileMods: binary mysqldump finished (writes: 36) in 0.20 seconds
0004.245 (0) Table sg_wfFileMods: finishing file (backup_2018-09-17-2137_Jetli_Transfer_5386d462a2dc-db-table-sg_wfFileMods.table.gz - 857.1 KB)
0004.250 (0) Table sg_wfHits: Total expected rows (approximate): 3421
0004.518 (0) Table sg_wfHits: Total rows added: 3442 in 0.27 seconds
0004.522 (0) Table sg_wfHits: finishing file (backup_2018-09-17-2137_Jetli_Transfer_5386d462a2dc-db-table-sg_wfHits.table.gz - 69.6 KB)
0004.526 (0) Table sg_wfHoover: Total expected rows (approximate): 0
0004.529 (0) Table sg_wfHoover: Total rows added: 0 in 0.00 seconds
0004.530 (0) Table sg_wfHoover: finishing file (backup_2018-09-17-2137_Jetli_Transfer_5386d462a2dc-db-table-sg_wfHoover.table.gz - 0.3 KB)
0004.534 (0) Table sg_wfIssues: Total expected rows (approximate): 28
0004.540 (0) Table sg_wfIssues: Total rows added: 28 in 0.01 seconds
0004.542 (0) Table sg_wfIssues: finishing file (backup_2018-09-17-2137_Jetli_Transfer_5386d462a2dc-db-table-sg_wfIssues.table.gz - 7.5 KB)
0004.548 (0) Table sg_wfKnownFileList: Total expected rows (approximate): 9355
0004.639 (0) Table sg_wfKnownFileList: binary mysqldump finished (writes: 28) in 0.09 seconds
0004.642 (0) Table sg_wfKnownFileList: finishing file (backup_2018-09-17-2137_Jetli_Transfer_5386d462a2dc-db-table-sg_wfKnownFileList.table.gz - 97.4 KB)
0004.647 (0) Table sg_wfLeechers: Total expected rows (approximate): 731
0004.667 (0) Table sg_wfLeechers: Total rows added: 731 in 0.02 seconds
0004.669 (0) Table sg_wfLeechers: finishing file (backup_2018-09-17-2137_Jetli_Transfer_5386d462a2dc-db-table-sg_wfLeechers.table.gz - 3.7 KB)
0004.676 (0) Table sg_wfLocs: Total expected rows (approximate): 2
0004.681 (0) Table sg_wfLocs: Total rows added: 2 in 0.00 seconds
0004.683 (0) Table sg_wfLocs: finishing file (backup_2018-09-17-2137_Jetli_Transfer_5386d462a2dc-db-table-sg_wfLocs.table.gz - 0.5 KB)
0004.691 (0) Table sg_wfLogins: Total expected rows (approximate): 206
0004.706 (0) Table sg_wfLogins: Total rows added: 206 in 0.01 seconds
0004.707 (0) Table sg_wfLogins: finishing file (backup_2018-09-17-2137_Jetli_Transfer_5386d462a2dc-db-table-sg_wfLogins.table.gz - 5 KB)
0004.712 (0) Table sg_wfNet404s: Total expected rows (approximate): 0
0004.714 (0) Table sg_wfNet404s: Total rows added: 0 in 0.00 seconds
0004.716 (0) Table sg_wfNet404s: finishing file (backup_2018-09-17-2137_Jetli_Transfer_5386d462a2dc-db-table-sg_wfNet404s.table.gz - 0.3 KB)
0004.720 (0) Table sg_wfNotifications: Total expected rows (approximate): 12
0004.723 (0) Table sg_wfNotifications: Total rows added: 12 in 0.00 seconds
0004.725 (0) Table sg_wfNotifications: finishing file (backup_2018-09-17-2137_Jetli_Transfer_5386d462a2dc-db-table-sg_wfNotifications.table.gz - 0.7 KB)
0004.729 (0) Table sg_wfPendingIssues: Total expected rows (approximate): 0
0004.732 (0) Table sg_wfPendingIssues: Total rows added: 0 in 0.00 seconds
0004.734 (0) Table sg_wfPendingIssues: finishing file (backup_2018-09-17-2137_Jetli_Transfer_5386d462a2dc-db-table-sg_wfPendingIssues.table.gz - 0.4 KB)
0004.741 (0) Table sg_wfReverseCache: Total expected rows (approximate): 4
0004.746 (0) Table sg_wfReverseCache: Total rows added: 4 in 0.00 seconds
0004.749 (0) Table sg_wfReverseCache: finishing file (backup_2018-09-17-2137_Jetli_Transfer_5386d462a2dc-db-table-sg_wfReverseCache.table.gz - 0.5 KB)
0004.757 (0) Table sg_wfSNIPCache: Total expected rows (approximate): 0
0004.762 (0) Table sg_wfSNIPCache: Total rows added: 0 in 0.00 seconds
0004.763 (0) Table sg_wfSNIPCache: finishing file (backup_2018-09-17-2137_Jetli_Transfer_5386d462a2dc-db-table-sg_wfSNIPCache.table.gz - 0.4 KB)
0004.767 (0) Table sg_wfScanners: Total expected rows (approximate): 140
0004.773 (0) Table sg_wfScanners: Total rows added: 140 in 0.00 seconds
0004.775 (0) Table sg_wfScanners: finishing file (backup_2018-09-17-2137_Jetli_Transfer_5386d462a2dc-db-table-sg_wfScanners.table.gz - 1.1 KB)
0004.781 (0) Table sg_wfStatus: Total expected rows (approximate): 968
0004.815 (0) Table sg_wfStatus: Total rows added: 968 in 0.03 seconds
0004.817 (0) Table sg_wfStatus: finishing file (backup_2018-09-17-2137_Jetli_Transfer_5386d462a2dc-db-table-sg_wfStatus.table.gz - 17.2 KB)
0004.821 (0) Table sg_wfVulnScanners: Total expected rows (approximate): 0
0004.825 (0) Table sg_wfVulnScanners: Total rows added: 0 in 0.00 seconds
0004.827 (0) Table sg_wfVulnScanners: finishing file (backup_2018-09-17-2137_Jetli_Transfer_5386d462a2dc-db-table-sg_wfVulnScanners.table.gz - 0.3 KB)
0004.835 (0) Table sg_woocommerce_api_keys: Total expected rows (approximate): 0
0004.841 (0) Table sg_woocommerce_api_keys: Total rows added: 0 in 0.00 seconds
0004.843 (0) Table sg_woocommerce_api_keys: finishing file (backup_2018-09-17-2137_Jetli_Transfer_5386d462a2dc-db-table-sg_woocommerce_api_keys.table.gz - 0.4 KB)
0004.851 (0) Table sg_woocommerce_attribute_taxonomies: Total expected rows (approximate): 1
0004.867 (0) Table sg_woocommerce_attribute_taxonomies: Total rows added: 1 in 0.01 seconds
0004.869 (0) Table sg_woocommerce_attribute_taxonomies: finishing file (backup_2018-09-17-2137_Jetli_Transfer_5386d462a2dc-db-table-sg_woocommerce_attribute_taxonomies.table.gz - 0.4 KB)
0004.875 (0) Table sg_woocommerce_downloadable_product_permissions: Total expected rows (approximate): 0
0004.878 (0) Table sg_woocommerce_downloadable_product_permissions: Total rows added: 0 in 0.00 seconds
0004.879 (0) Table sg_woocommerce_downloadable_product_permissions: finishing file (backup_2018-09-17-2137_Jetli_Transfer_5386d462a2dc-db-table-sg_woocommerce_downloadable_product_permissions.table.gz - 0.5 KB)
0004.883 (0) Table sg_woocommerce_log: Total expected rows (approximate): 0
0004.886 (0) Table sg_woocommerce_log: Total rows added: 0 in 0.00 seconds
0004.887 (0) Table sg_woocommerce_log: finishing file (backup_2018-09-17-2137_Jetli_Transfer_5386d462a2dc-db-table-sg_woocommerce_log.table.gz - 0.4 KB)
0004.892 (0) Table sg_woocommerce_order_items: Total expected rows (approximate): 683
0004.914 (0) Table sg_woocommerce_order_items: Total rows added: 683 in 0.02 seconds
0004.915 (0) Table sg_woocommerce_order_items: finishing file (backup_2018-09-17-2137_Jetli_Transfer_5386d462a2dc-db-table-sg_woocommerce_order_items.table.gz - 4.8 KB)
0004.921 (0) Table sg_woocommerce_payment_tokens: Total expected rows (approximate): 2
0004.936 (0) Table sg_woocommerce_payment_tokens: Total rows added: 2 in 0.01 seconds
0004.939 (0) Table sg_woocommerce_payment_tokens: finishing file (backup_2018-09-17-2137_Jetli_Transfer_5386d462a2dc-db-table-sg_woocommerce_payment_tokens.table.gz - 0.5 KB)
0004.947 (0) Table sg_woocommerce_sessions: Total expected rows (approximate): 38
0005.062 (0) Table sg_woocommerce_sessions: Total rows added: 38 in 0.11 seconds
0005.064 (0) Table sg_woocommerce_sessions: finishing file (backup_2018-09-17-2137_Jetli_Transfer_5386d462a2dc-db-table-sg_woocommerce_sessions.table.gz - 16.7 KB)
0005.069 (0) Table sg_woocommerce_shipping_zone_locations: Total expected rows (approximate): 0
0005.071 (0) Table sg_woocommerce_shipping_zone_locations: Total rows added: 0 in 0.00 seconds
0005.073 (0) Table sg_woocommerce_shipping_zone_locations: finishing file (backup_2018-09-17-2137_Jetli_Transfer_5386d462a2dc-db-table-sg_woocommerce_shipping_zone_locations.table.gz - 0.4 KB)
0005.077 (0) Table sg_woocommerce_shipping_zone_methods: Total expected rows (approximate): 0
0005.080 (0) Table sg_woocommerce_shipping_zone_methods: Total rows added: 0 in 0.00 seconds
0005.081 (0) Table sg_woocommerce_shipping_zone_methods: finishing file (backup_2018-09-17-2137_Jetli_Transfer_5386d462a2dc-db-table-sg_woocommerce_shipping_zone_methods.table.gz - 0.4 KB)
0005.086 (0) Table sg_woocommerce_shipping_zones: Total expected rows (approximate): 0
0005.088 (0) Table sg_woocommerce_shipping_zones: Total rows added: 0 in 0.00 seconds
0005.090 (0) Table sg_woocommerce_shipping_zones: finishing file (backup_2018-09-17-2137_Jetli_Transfer_5386d462a2dc-db-table-sg_woocommerce_shipping_zones.table.gz - 0.3 KB)
0005.094 (0) Table sg_woocommerce_tax_rate_locations: Total expected rows (approximate): 0
0005.096 (0) Table sg_woocommerce_tax_rate_locations: Total rows added: 0 in 0.00 seconds
0005.098 (0) Table sg_woocommerce_tax_rate_locations: finishing file (backup_2018-09-17-2137_Jetli_Transfer_5386d462a2dc-db-table-sg_woocommerce_tax_rate_locations.table.gz - 0.4 KB)
0005.102 (0) Table sg_woocommerce_tax_rates: Total expected rows (approximate): 0
0005.105 (0) Table sg_woocommerce_tax_rates: Total rows added: 0 in 0.00 seconds
0005.106 (0) Table sg_woocommerce_tax_rates: finishing file (backup_2018-09-17-2137_Jetli_Transfer_5386d462a2dc-db-table-sg_woocommerce_tax_rates.table.gz - 0.4 KB)
0005.110 (0) Table sg_yith_wcaf_affiliates: Total expected rows (approximate): 0
0005.113 (0) Table sg_yith_wcaf_affiliates: Total rows added: 0 in 0.00 seconds
0005.114 (0) Table sg_yith_wcaf_affiliates: finishing file (backup_2018-09-17-2137_Jetli_Transfer_5386d462a2dc-db-table-sg_yith_wcaf_affiliates.table.gz - 0.4 KB)
0005.119 (0) Table sg_yith_wcaf_clicks: Total expected rows (approximate): 0
0005.122 (0) Table sg_yith_wcaf_clicks: Total rows added: 0 in 0.00 seconds
0005.123 (0) Table sg_yith_wcaf_clicks: finishing file (backup_2018-09-17-2137_Jetli_Transfer_5386d462a2dc-db-table-sg_yith_wcaf_clicks.table.gz - 0.4 KB)
0005.130 (0) Table sg_yith_wcaf_commission_notes: Total expected rows (approximate): 0
0005.134 (0) Table sg_yith_wcaf_commission_notes: Total rows added: 0 in 0.00 seconds
0005.136 (0) Table sg_yith_wcaf_commission_notes: finishing file (backup_2018-09-17-2137_Jetli_Transfer_5386d462a2dc-db-table-sg_yith_wcaf_commission_notes.table.gz - 0.3 KB)
0005.143 (0) Table sg_yith_wcaf_commissions: Total expected rows (approximate): 0
0005.146 (0) Table sg_yith_wcaf_commissions: Total rows added: 0 in 0.00 seconds
0005.147 (0) Table sg_yith_wcaf_commissions: finishing file (backup_2018-09-17-2137_Jetli_Transfer_5386d462a2dc-db-table-sg_yith_wcaf_commissions.table.gz - 0.4 KB)
0005.151 (0) Table sg_yith_wcaf_payment_commission: Total expected rows (approximate): 0
0005.154 (0) Table sg_yith_wcaf_payment_commission: Total rows added: 0 in 0.00 seconds
0005.155 (0) Table sg_yith_wcaf_payment_commission: finishing file (backup_2018-09-17-2137_Jetli_Transfer_5386d462a2dc-db-table-sg_yith_wcaf_payment_commission.table.gz - 0.3 KB)
0005.160 (0) Table sg_yith_wcaf_payment_notes: Total expected rows (approximate): 0
0005.162 (0) Table sg_yith_wcaf_payment_notes: Total rows added: 0 in 0.00 seconds
0005.163 (0) Table sg_yith_wcaf_payment_notes: finishing file (backup_2018-09-17-2137_Jetli_Transfer_5386d462a2dc-db-table-sg_yith_wcaf_payment_notes.table.gz - 0.3 KB)
0005.168 (0) Table sg_yith_wcaf_payments: Total expected rows (approximate): 0
0005.171 (0) Table sg_yith_wcaf_payments: Total rows added: 0 in 0.00 seconds
0005.172 (0) Table sg_yith_wcaf_payments: finishing file (backup_2018-09-17-2137_Jetli_Transfer_5386d462a2dc-db-table-sg_yith_wcaf_payments.table.gz - 0.4 KB)
0005.178 (0) backup_2018-09-17-2137_Jetli_Transfer_5386d462a2dc-db-table-sg_options.table.gz (1/74): adding to final database dump
0005.284 (0) backup_2018-09-17-2137_Jetli_Transfer_5386d462a2dc-db-table-sg_users.table.gz (2/74): adding to final database dump
0005.289 (0) backup_2018-09-17-2137_Jetli_Transfer_5386d462a2dc-db-table-sg_usermeta.table.gz (3/74): adding to final database dump
0005.328 (0) backup_2018-09-17-2137_Jetli_Transfer_5386d462a2dc-db-table-sg_commentmeta.table.gz (4/74): adding to final database dump
0005.329 (0) backup_2018-09-17-2137_Jetli_Transfer_5386d462a2dc-db-table-sg_comments.table.gz (5/74): adding to final database dump
0005.345 (0) backup_2018-09-17-2137_Jetli_Transfer_5386d462a2dc-db-table-sg_links.table.gz (6/74): adding to final database dump
0005.347 (0) backup_2018-09-17-2137_Jetli_Transfer_5386d462a2dc-db-table-sg_postmeta.table.gz (7/74): adding to final database dump
0005.529 (0) backup_2018-09-17-2137_Jetli_Transfer_5386d462a2dc-db-table-sg_posts.table.gz (8/74): adding to final database dump
0005.576 (0) backup_2018-09-17-2137_Jetli_Transfer_5386d462a2dc-db-table-sg_term_relationships.table.gz (9/74): adding to final database dump
0005.582 (0) backup_2018-09-17-2137_Jetli_Transfer_5386d462a2dc-db-table-sg_term_taxonomy.table.gz (10/74): adding to final database dump
0005.585 (0) backup_2018-09-17-2137_Jetli_Transfer_5386d462a2dc-db-table-sg_termmeta.table.gz (11/74): adding to final database dump
0005.587 (0) backup_2018-09-17-2137_Jetli_Transfer_5386d462a2dc-db-table-sg_terms.table.gz (12/74): adding to final database dump
0005.590 (0) backup_2018-09-17-2137_Jetli_Transfer_5386d462a2dc-db-table-sg_woocommerce_order_itemmeta.table.gz (13/74): adding to final database dump
0005.658 (0) backup_2018-09-17-2137_Jetli_Transfer_5386d462a2dc-db-table-sg_woocommerce_payment_tokenmeta.table.gz (14/74): adding to final database dump
0005.661 (0) backup_2018-09-17-2137_Jetli_Transfer_5386d462a2dc-db-table-sg_yoast_seo_links.table.gz (15/74): adding to final database dump
0005.665 (0) backup_2018-09-17-2137_Jetli_Transfer_5386d462a2dc-db-table-sg_yoast_seo_meta.table.gz (16/74): adding to final database dump
0005.670 (0) backup_2018-09-17-2137_Jetli_Transfer_5386d462a2dc-db-table-sg_defender_lockout.table.gz (17/74): adding to final database dump
0005.672 (0) backup_2018-09-17-2137_Jetli_Transfer_5386d462a2dc-db-table-sg_defender_lockout_log.table.gz (18/74): adding to final database dump
0005.674 (0) backup_2018-09-17-2137_Jetli_Transfer_5386d462a2dc-db-table-sg_ecp_x_category.table.gz (19/74): adding to final database dump
0005.676 (0) backup_2018-09-17-2137_Jetli_Transfer_5386d462a2dc-db-table-sg_failed_jobs.table.gz (20/74): adding to final database dump
0005.678 (0) backup_2018-09-17-2137_Jetli_Transfer_5386d462a2dc-db-table-sg_mailchimp_carts.table.gz (21/74): adding to final database dump
0005.679 (0) backup_2018-09-17-2137_Jetli_Transfer_5386d462a2dc-db-table-sg_masterslider_options.table.gz (22/74): adding to final database dump
0005.683 (0) backup_2018-09-17-2137_Jetli_Transfer_5386d462a2dc-db-table-sg_masterslider_sliders.table.gz (23/74): adding to final database dump
0005.687 (0) backup_2018-09-17-2137_Jetli_Transfer_5386d462a2dc-db-table-sg_queue.table.gz (24/74): adding to final database dump
0005.689 (0) backup_2018-09-17-2137_Jetli_Transfer_5386d462a2dc-db-table-sg_revslider_css.table.gz (25/74): adding to final database dump
0005.696 (0) backup_2018-09-17-2137_Jetli_Transfer_5386d462a2dc-db-table-sg_revslider_layer_animations.table.gz (26/74): adding to final database dump
0005.698 (0) backup_2018-09-17-2137_Jetli_Transfer_5386d462a2dc-db-table-sg_revslider_navigations.table.gz (27/74): adding to final database dump
0005.699 (0) backup_2018-09-17-2137_Jetli_Transfer_5386d462a2dc-db-table-sg_revslider_sliders.table.gz (28/74): adding to final database dump
0005.703 (0) backup_2018-09-17-2137_Jetli_Transfer_5386d462a2dc-db-table-sg_revslider_slides.table.gz (29/74): adding to final database dump
0005.712 (0) backup_2018-09-17-2137_Jetli_Transfer_5386d462a2dc-db-table-sg_revslider_static_slides.table.gz (30/74): adding to final database dump
0005.715 (0) backup_2018-09-17-2137_Jetli_Transfer_5386d462a2dc-db-table-sg_smush_dir_images.table.gz (31/74): adding to final database dump
0005.717 (0) backup_2018-09-17-2137_Jetli_Transfer_5386d462a2dc-db-table-sg_wcpdf_invoice_number.table.gz (32/74): adding to final database dump
0005.719 (0) backup_2018-09-17-2137_Jetli_Transfer_5386d462a2dc-db-table-sg_wfBadLeechers.table.gz (33/74): adding to final database dump
0005.720 (0) backup_2018-09-17-2137_Jetli_Transfer_5386d462a2dc-db-table-sg_wfBlockedCommentLog.table.gz (34/74): adding to final database dump
0005.722 (0) backup_2018-09-17-2137_Jetli_Transfer_5386d462a2dc-db-table-sg_wfBlockedIPLog.table.gz (35/74): adding to final database dump
0005.723 (0) backup_2018-09-17-2137_Jetli_Transfer_5386d462a2dc-db-table-sg_wfBlocks7.table.gz (36/74): adding to final database dump
0005.725 (0) backup_2018-09-17-2137_Jetli_Transfer_5386d462a2dc-db-table-sg_wfConfig.table.gz (37/74): adding to final database dump
0005.817 (0) backup_2018-09-17-2137_Jetli_Transfer_5386d462a2dc-db-table-sg_wfCrawlers.table.gz (38/74): adding to final database dump
0005.819 (0) backup_2018-09-17-2137_Jetli_Transfer_5386d462a2dc-db-table-sg_wfFileChanges.table.gz (39/74): adding to final database dump
0005.821 (0) backup_2018-09-17-2137_Jetli_Transfer_5386d462a2dc-db-table-sg_wfFileMods.table.gz (40/74): adding to final database dump
0005.962 (0) backup_2018-09-17-2137_Jetli_Transfer_5386d462a2dc-db-table-sg_wfHits.table.gz (41/74): adding to final database dump
0006.020 (0) backup_2018-09-17-2137_Jetli_Transfer_5386d462a2dc-db-table-sg_wfHoover.table.gz (42/74): adding to final database dump
0006.022 (0) backup_2018-09-17-2137_Jetli_Transfer_5386d462a2dc-db-table-sg_wfIssues.table.gz (43/74): adding to final database dump
0006.029 (0) backup_2018-09-17-2137_Jetli_Transfer_5386d462a2dc-db-table-sg_wfKnownFileList.table.gz (44/74): adding to final database dump
0006.072 (0) backup_2018-09-17-2137_Jetli_Transfer_5386d462a2dc-db-table-sg_wfLeechers.table.gz (45/74): adding to final database dump
0006.086 (0) backup_2018-09-17-2137_Jetli_Transfer_5386d462a2dc-db-table-sg_wfLocs.table.gz (46/74): adding to final database dump
0006.088 (0) backup_2018-09-17-2137_Jetli_Transfer_5386d462a2dc-db-table-sg_wfLogins.table.gz (47/74): adding to final database dump
0006.093 (0) backup_2018-09-17-2137_Jetli_Transfer_5386d462a2dc-db-table-sg_wfNet404s.table.gz (48/74): adding to final database dump
0006.094 (0) backup_2018-09-17-2137_Jetli_Transfer_5386d462a2dc-db-table-sg_wfNotifications.table.gz (49/74): adding to final database dump
0006.096 (0) backup_2018-09-17-2137_Jetli_Transfer_5386d462a2dc-db-table-sg_wfPendingIssues.table.gz (50/74): adding to final database dump
0006.098 (0) backup_2018-09-17-2137_Jetli_Transfer_5386d462a2dc-db-table-sg_wfReverseCache.table.gz (51/74): adding to final database dump
0006.099 (0) backup_2018-09-17-2137_Jetli_Transfer_5386d462a2dc-db-table-sg_wfSNIPCache.table.gz (52/74): adding to final database dump
0006.101 (0) backup_2018-09-17-2137_Jetli_Transfer_5386d462a2dc-db-table-sg_wfScanners.table.gz (53/74): adding to final database dump
0006.104 (0) backup_2018-09-17-2137_Jetli_Transfer_5386d462a2dc-db-table-sg_wfStatus.table.gz (54/74): adding to final database dump
0006.119 (0) backup_2018-09-17-2137_Jetli_Transfer_5386d462a2dc-db-table-sg_wfVulnScanners.table.gz (55/74): adding to final database dump
0006.120 (0) backup_2018-09-17-2137_Jetli_Transfer_5386d462a2dc-db-table-sg_woocommerce_api_keys.table.gz (56/74): adding to final database dump
0006.122 (0) backup_2018-09-17-2137_Jetli_Transfer_5386d462a2dc-db-table-sg_woocommerce_attribute_taxonomies.table.gz (57/74): adding to final database dump
0006.124 (0) backup_2018-09-17-2137_Jetli_Transfer_5386d462a2dc-db-table-sg_woocommerce_downloadable_product_permissions.table.gz (58/74): adding to final database dump
0006.126 (0) backup_2018-09-17-2137_Jetli_Transfer_5386d462a2dc-db-table-sg_woocommerce_log.table.gz (59/74): adding to final database dump
0006.127 (0) backup_2018-09-17-2137_Jetli_Transfer_5386d462a2dc-db-table-sg_woocommerce_order_items.table.gz (60/74): adding to final database dump
0006.138 (0) backup_2018-09-17-2137_Jetli_Transfer_5386d462a2dc-db-table-sg_woocommerce_payment_tokens.table.gz (61/74): adding to final database dump
0006.140 (0) backup_2018-09-17-2137_Jetli_Transfer_5386d462a2dc-db-table-sg_woocommerce_sessions.table.gz (62/74): adding to final database dump
0006.148 (0) backup_2018-09-17-2137_Jetli_Transfer_5386d462a2dc-db-table-sg_woocommerce_shipping_zone_locations.table.gz (63/74): adding to final database dump
0006.150 (0) backup_2018-09-17-2137_Jetli_Transfer_5386d462a2dc-db-table-sg_woocommerce_shipping_zone_methods.table.gz (64/74): adding to final database dump
0006.152 (0) backup_2018-09-17-2137_Jetli_Transfer_5386d462a2dc-db-table-sg_woocommerce_shipping_zones.table.gz (65/74): adding to final database dump
0006.154 (0) backup_2018-09-17-2137_Jetli_Transfer_5386d462a2dc-db-table-sg_woocommerce_tax_rate_locations.table.gz (66/74): adding to final database dump
0006.155 (0) backup_2018-09-17-2137_Jetli_Transfer_5386d462a2dc-db-table-sg_woocommerce_tax_rates.table.gz (67/74): adding to final database dump
0006.156 (0) backup_2018-09-17-2137_Jetli_Transfer_5386d462a2dc-db-table-sg_yith_wcaf_affiliates.table.gz (68/74): adding to final database dump
0006.158 (0) backup_2018-09-17-2137_Jetli_Transfer_5386d462a2dc-db-table-sg_yith_wcaf_clicks.table.gz (69/74): adding to final database dump
0006.159 (0) backup_2018-09-17-2137_Jetli_Transfer_5386d462a2dc-db-table-sg_yith_wcaf_commission_notes.table.gz (70/74): adding to final database dump
0006.161 (0) backup_2018-09-17-2137_Jetli_Transfer_5386d462a2dc-db-table-sg_yith_wcaf_commissions.table.gz (71/74): adding to final database dump
0006.162 (0) backup_2018-09-17-2137_Jetli_Transfer_5386d462a2dc-db-table-sg_yith_wcaf_payment_commission.table.gz (72/74): adding to final database dump
0006.164 (0) backup_2018-09-17-2137_Jetli_Transfer_5386d462a2dc-db-table-sg_yith_wcaf_payment_notes.table.gz (73/74): adding to final database dump
0006.166 (0) backup_2018-09-17-2137_Jetli_Transfer_5386d462a2dc-db-table-sg_yith_wcaf_payments.table.gz (74/74): adding to final database dump
0006.168 (0) backup_2018-09-17-2137_Jetli_Transfer_5386d462a2dc-db.gz: finished writing out complete database file (3200 KB)
0006.247 (0) Total database tables backed up: 74 (backup_2018-09-17-2137_Jetli_Transfer_5386d462a2dc-db.gz, size: 3302556, sha256)
0006.256 (0) backup_2018-09-17-2137_Jetli_Transfer_5386d462a2dc-db.gz: db: This file has not yet been successfully uploaded: will queue
0006.257 (0) Saving backup history. Total backup size: 3.1 MB
0006.261 (0) Requesting upload of the files that have not yet been successfully uploaded (1)
0006.264 (0) Cloud backup selection (1/1):  with instance (1/1) (last)
0006.265 (0) No remote despatch: user chose no remote backup service
0006.267 (0) Recording as successfully uploaded: backup_2018-09-17-2137_Jetli_Transfer_5386d462a2dc-db.gz (c1ed958ba84357d93a8e3a059835cfea)
0006.270 (0) Retain: beginning examination of existing backup sets; user setting: retain_files=2, retain_db=15
0006.272 (0) Number of backup sets in history: 19; groups (db): 1
0006.273 (0) Examining (for databases) backup set with group_id=0, nonce=5386d462a2dc, datestamp=1537220221 (Sep 17 2018 21:37:01)
0006.274 (0) This backup set is the backup set just made, so will not be deleted.
0006.274 (0) Examining (for databases) backup set with group_id=0, nonce=cfc96f17c298, datestamp=1537133816 (Sep 16 2018 21:36:56)
0006.274 (0) This backup set remains non-empty (f=0/d=1); will retain in history
0006.275 (0) Examining (for databases) backup set with group_id=0, nonce=155aa21e543a, datestamp=1537047418 (Sep 15 2018 21:36:58)
0006.275 (0) This backup set remains non-empty (f=0/d=1); will retain in history
0006.275 (0) Examining (for databases) backup set with group_id=0, nonce=ac6dd5783973, datestamp=1536961017 (Sep 14 2018 21:36:57)
0006.275 (0) This backup set remains non-empty (f=0/d=1); will retain in history
0006.276 (0) Examining (for databases) backup set with group_id=0, nonce=bb97ad540f5b, datestamp=1536874618 (Sep 13 2018 21:36:58)
0006.276 (0) This backup set remains non-empty (f=0/d=1); will retain in history
0006.276 (0) Examining (for databases) backup set with group_id=0, nonce=b98eef484985, datestamp=1536788219 (Sep 12 2018 21:36:59)
0006.276 (0) This backup set remains non-empty (f=0/d=1); will retain in history
0006.276 (0) Examining (for databases) backup set with group_id=0, nonce=0ef2e25e8560, datestamp=1536701824 (Sep 11 2018 21:37:04)
0006.276 (0) This backup set remains non-empty (f=0/d=1); will retain in history
0006.277 (0) Examining (for databases) backup set with group_id=0, nonce=78713c26abd0, datestamp=1536615415 (Sep 10 2018 21:36:55)
0006.277 (0) This backup set remains non-empty (f=0/d=1); will retain in history
0006.277 (0) Examining (for databases) backup set with group_id=0, nonce=89b77af1da6b, datestamp=1536529019 (Sep 09 2018 21:36:59)
0006.277 (0) This backup set remains non-empty (f=0/d=1); will retain in history
0006.277 (0) Examining (for databases) backup set with group_id=0, nonce=24ae44eed697, datestamp=1536442616 (Sep 08 2018 21:36:56)
0006.277 (0) This backup set remains non-empty (f=0/d=1); will retain in history
0006.277 (0) Examining (for databases) backup set with group_id=0, nonce=bca0017590bc, datestamp=1536356220 (Sep 07 2018 21:37:00)
0006.277 (0) This backup set remains non-empty (f=0/d=1); will retain in history
0006.278 (0) Examining (for databases) backup set with group_id=0, nonce=a86cb3622ce3, datestamp=1536269816 (Sep 06 2018 21:36:56)
0006.278 (0) This backup set remains non-empty (f=0/d=1); will retain in history
0006.278 (0) Examining (for databases) backup set with group_id=0, nonce=68969c34ce01, datestamp=1536183417 (Sep 05 2018 21:36:57)
0006.278 (0) This backup set remains non-empty (f=0/d=1); will retain in history
0006.278 (0) Examining (for databases) backup set with group_id=0, nonce=b4ef592b932d, datestamp=1536097018 (Sep 04 2018 21:36:58)
0006.278 (0) This backup set remains non-empty (f=0/d=1); will retain in history
0006.279 (0) Examining (for databases) backup set with group_id=0, nonce=ba21d9c5cc7b, datestamp=1536010621 (Sep 03 2018 21:37:01)
0006.279 (0) This backup set remains non-empty (f=0/d=1); will retain in history
0006.279 (0) Examining (for databases) backup set with group_id=0, nonce=28c484d17395, datestamp=1535924218 (Sep 02 2018 21:36:58)
0006.279 (0) 1535924218: db: this set includes a database (backup_2018-09-02-2136_Jetli_Transfer_28c484d17395-db.gz); db count is now 15
0006.279 (0) 1535924218: db: over retain limit (15); will delete this database
0006.279 (0) Delete file: backup_2018-09-02-2136_Jetli_Transfer_28c484d17395-db.gz, service=none
0006.280 (0) Deleting local copy (backup_2018-09-02-2136_Jetli_Transfer_28c484d17395-db.gz)
0006.298 (0) This backup set is now empty; will remove from history
0006.300 (0) Deleting log file (log.28c484d17395.txt)
0006.314 (0) Examining (for databases) backup set with group_id=0, nonce=f3b019b1bce2, datestamp=1520164009 (Mar 04 2018 11:46:49)
0006.315 (0) Examining (for databases) backup set with group_id=0, nonce=05a39e7d019e, datestamp=1519183986 (Feb 21 2018 03:33:06)
0006.315 (0) Examining (for databases) backup set with group_id=0, nonce=a29dbc7c4302, datestamp=1513348932 (Dec 15 2017 14:42:12)
0006.315 (0) Number of backup sets in history: 18; groups (files): 1
0006.317 (0) Examining (for files) backup set with nonce=5386d462a2dc, datestamp=1537220221 (Sep 17 2018 21:37:01)
0006.317 (0) This backup set remains non-empty (f=0/d=1); will retain in history
0006.319 (0) Examining (for files) backup set with nonce=cfc96f17c298, datestamp=1537133816 (Sep 16 2018 21:36:56)
0006.319 (0) This backup set remains non-empty (f=0/d=1); will retain in history
0006.320 (0) Examining (for files) backup set with nonce=155aa21e543a, datestamp=1537047418 (Sep 15 2018 21:36:58)
0006.320 (0) This backup set remains non-empty (f=0/d=1); will retain in history
0006.320 (0) Examining (for files) backup set with nonce=ac6dd5783973, datestamp=1536961017 (Sep 14 2018 21:36:57)
0006.320 (0) This backup set remains non-empty (f=0/d=1); will retain in history
0006.321 (0) Examining (for files) backup set with nonce=bb97ad540f5b, datestamp=1536874618 (Sep 13 2018 21:36:58)
0006.321 (0) This backup set remains non-empty (f=0/d=1); will retain in history
0006.321 (0) Examining (for files) backup set with nonce=b98eef484985, datestamp=1536788219 (Sep 12 2018 21:36:59)
0006.321 (0) This backup set remains non-empty (f=0/d=1); will retain in history
0006.322 (0) Examining (for files) backup set with nonce=0ef2e25e8560, datestamp=1536701824 (Sep 11 2018 21:37:04)
0006.322 (0) This backup set remains non-empty (f=0/d=1); will retain in history
0006.322 (0) Examining (for files) backup set with nonce=78713c26abd0, datestamp=1536615415 (Sep 10 2018 21:36:55)
0006.322 (0) This backup set remains non-empty (f=0/d=1); will retain in history
0006.322 (0) Examining (for files) backup set with nonce=89b77af1da6b, datestamp=1536529019 (Sep 09 2018 21:36:59)
0006.322 (0) This backup set remains non-empty (f=0/d=1); will retain in history
0006.323 (0) Examining (for files) backup set with nonce=24ae44eed697, datestamp=1536442616 (Sep 08 2018 21:36:56)
0006.323 (0) This backup set remains non-empty (f=0/d=1); will retain in history
0006.323 (0) Examining (for files) backup set with nonce=bca0017590bc, datestamp=1536356220 (Sep 07 2018 21:37:00)
0006.323 (0) This backup set remains non-empty (f=0/d=1); will retain in history
0006.323 (0) Examining (for files) backup set with nonce=a86cb3622ce3, datestamp=1536269816 (Sep 06 2018 21:36:56)
0006.323 (0) This backup set remains non-empty (f=0/d=1); will retain in history
0006.324 (0) Examining (for files) backup set with nonce=68969c34ce01, datestamp=1536183417 (Sep 05 2018 21:36:57)
0006.324 (0) This backup set remains non-empty (f=0/d=1); will retain in history
0006.324 (0) Examining (for files) backup set with nonce=b4ef592b932d, datestamp=1536097018 (Sep 04 2018 21:36:58)
0006.324 (0) This backup set remains non-empty (f=0/d=1); will retain in history
0006.324 (0) Examining (for files) backup set with nonce=ba21d9c5cc7b, datestamp=1536010621 (Sep 03 2018 21:37:01)
0006.324 (0) This backup set remains non-empty (f=0/d=1); will retain in history
0006.324 (0) Examining (for files) backup set with nonce=f3b019b1bce2, datestamp=1520164009 (Mar 04 2018 11:46:49)
0006.324 (0) This backup set remains non-empty (f=1/d=0); will retain in history
0006.325 (0) Examining (for files) backup set with nonce=05a39e7d019e, datestamp=1519183986 (Feb 21 2018 03:33:06)
0006.326 (0) This backup set remains non-empty (f=1/d=0); will retain in history
0006.326 (0) Examining (for files) backup set with nonce=a29dbc7c4302, datestamp=1513348932 (Dec 15 2017 14:42:12)
0006.326 (0) This backup set remains non-empty (f=1/d=0); will retain in history
0006.326 (0) Retain: saving new backup history (sets now: 18) and finishing retain operation
0006.331 (0) Resume backup (5386d462a2dc, 0): finish run
0006.334 (0) Decremented the semaphore (d) by 1
0006.335 (0) Semaphore (d) unlocked
0006.336 (0) There were no errors in the uploads, so the 'resume' event (1) is being unscheduled
0006.340 (0) No email will/can be sent - the user has not configured an email address.
0006.341 (0) The backup apparently succeeded and is now complete
