0000.000 (0) Opened log file at time: Fri, 15 Dec 2017 14:42:12 +0000 on https://www.jetlitransfer.com
0000.004 (0) UpdraftPlus WordPress backup plugin (https://updraftplus.com): 1.13.15 WP: 4.9.1 PHP: 5.6.30 (cgi-fcgi, Linux gator4078.hostgator.com 3.12.74-213.ELK6.x86_64 #1 SMP Tue Jun 20 00:36:01 CDT 2017 x86_64) MySQL: 5.5.51 WPLANG: en_US Server: Apache safe_mode: 0 max_execution_time: 900 memory_limit: 256M (used: 76.6M | 77.8M) multisite: N openssl: OpenSSL 1.0.1e-fips 11 Feb 2013 mcrypt: Y LANG:  ZipArchive::addFile: Y
0000.215 (0) Free space on disk containing Updraft's temporary directory: 57565 MB
0000.224 (0) Tasks: Backup files: 1 (schedule: manual) Backup DB: 1 (schedule: daily)
0000.244 (0) Requesting semaphore lock (fd) (apparently not via scheduler)
0000.252 (0) Set semaphore last lock (fd) time to 2017-12-15 14:42:13
0000.257 (0) Semaphore lock (fd) complete
0000.269 (0) Backup run: resumption=0, nonce=a29dbc7c4302, begun at=1513348932 (1s ago), job type=backup
0000.280 (0) Scheduling a resumption (1) after 300 seconds (1513349233) in case this run gets aborted
0000.309 (0) Checking if we have a zip executable available
0000.313 (0) Testing: /usr/bin/zip
0000.331 (0) Output: zip warning: binziptest/test.zip not found or empty
0000.336 (0) Output: adding: binziptest/subdir1/	(in=0) (out=0) (stored 0%)
0000.341 (0) Output: adding: binziptest/subdir1/subdir2/	(in=0) (out=0) (stored 0%)
0000.345 (0) Output: adding: binziptest/subdir1/subdir2/test.html	(in=131) (out=107) (deflated 18%)
0000.349 (0) Output: total bytes=131, compressed=107 -> 18% savings
0000.367 (0) Output: adding: binziptest/subdir1/subdir2/test2.html	(in=138) (out=113) (deflated 18%)
0000.372 (0) Output: total bytes=269, compressed=220 -> 18% savings
0000.386 (0) Working binary zip found: /usr/bin/zip
0000.394 (0) Zip engine: found/will use a binary zip: /usr/bin/zip
0000.398 (0) Creation of backups of directories: beginning
0000.411 (0) Beginning creation of dump of plugins (split every: 400 MB)
0001.460 (0) Total entities for the zip file: 1428 directories, 8795 files (0 skipped as non-modified), 123.2 MB
0001.484 (0) Zip: backup_2017-12-15-1442_Jetli_Transfer_a29dbc7c4302-plugins.zip.tmp: 100 files added (on-disk size: 0 KB)
0001.495 (0) Zip: backup_2017-12-15-1442_Jetli_Transfer_a29dbc7c4302-plugins.zip.tmp: 200 files added (on-disk size: 0 KB)
0001.506 (0) Zip: backup_2017-12-15-1442_Jetli_Transfer_a29dbc7c4302-plugins.zip.tmp: 300 files added (on-disk size: 0 KB)
0001.517 (0) Zip: backup_2017-12-15-1442_Jetli_Transfer_a29dbc7c4302-plugins.zip.tmp: 400 files added (on-disk size: 0 KB)
0001.528 (0) Zip: backup_2017-12-15-1442_Jetli_Transfer_a29dbc7c4302-plugins.zip.tmp: 500 files added (on-disk size: 0 KB)
0001.532 (0) Adding batch to zip file (UpdraftPlus_BinZip): over 500 files added on this batch (5.6 MB, 8795 files batched, 501 (501) added so far); re-opening (prior size: 0 KB)
0003.500 (0) backup_2017-12-15-1442_Jetli_Transfer_a29dbc7c4302-plugins.zip.tmp: size is now: 2.00 MB
0003.514 (0) Zip: backup_2017-12-15-1442_Jetli_Transfer_a29dbc7c4302-plugins.zip.tmp: 600 files added (on-disk size: 2028 KB)
0003.522 (0) Zip: backup_2017-12-15-1442_Jetli_Transfer_a29dbc7c4302-plugins.zip.tmp: 700 files added (on-disk size: 2028 KB)
0003.530 (0) Zip: backup_2017-12-15-1442_Jetli_Transfer_a29dbc7c4302-plugins.zip.tmp: 800 files added (on-disk size: 2028 KB)
0003.539 (0) Zip: backup_2017-12-15-1442_Jetli_Transfer_a29dbc7c4302-plugins.zip.tmp: 900 files added (on-disk size: 2028 KB)
0003.547 (0) Zip: backup_2017-12-15-1442_Jetli_Transfer_a29dbc7c4302-plugins.zip.tmp: 1000 files added (on-disk size: 2028 KB)
0003.551 (0) Adding batch to zip file (UpdraftPlus_BinZip): over 500 files added on this batch (16.2 MB, 8795 files batched, 501 (1002) added so far); re-opening (prior size: 2028 KB)
0008.230 (0) backup_2017-12-15-1442_Jetli_Transfer_a29dbc7c4302-plugins.zip.tmp: size is now: 6.60 MB
0008.245 (0) Zip: backup_2017-12-15-1442_Jetli_Transfer_a29dbc7c4302-plugins.zip.tmp: 1100 files added (on-disk size: 6808.8 KB)
0008.253 (0) Zip: backup_2017-12-15-1442_Jetli_Transfer_a29dbc7c4302-plugins.zip.tmp: 1200 files added (on-disk size: 6808.8 KB)
0008.262 (0) Zip: backup_2017-12-15-1442_Jetli_Transfer_a29dbc7c4302-plugins.zip.tmp: 1300 files added (on-disk size: 6808.8 KB)
0008.270 (0) Zip: backup_2017-12-15-1442_Jetli_Transfer_a29dbc7c4302-plugins.zip.tmp: 1400 files added (on-disk size: 6808.8 KB)
0008.278 (0) Zip: backup_2017-12-15-1442_Jetli_Transfer_a29dbc7c4302-plugins.zip.tmp: 1500 files added (on-disk size: 6808.8 KB)
0008.282 (0) Adding batch to zip file (UpdraftPlus_BinZip): over 500 files added on this batch (2.8 MB, 8795 files batched, 501 (1503) added so far); re-opening (prior size: 6808.8 KB)
0009.657 (0) Zip: backup_2017-12-15-1442_Jetli_Transfer_a29dbc7c4302-plugins.zip.tmp: 1600 files added (on-disk size: 7775.4 KB)
0009.668 (0) Zip: backup_2017-12-15-1442_Jetli_Transfer_a29dbc7c4302-plugins.zip.tmp: 1700 files added (on-disk size: 7775.4 KB)
0009.676 (0) Zip: backup_2017-12-15-1442_Jetli_Transfer_a29dbc7c4302-plugins.zip.tmp: 1800 files added (on-disk size: 7775.4 KB)
0009.684 (0) Zip: backup_2017-12-15-1442_Jetli_Transfer_a29dbc7c4302-plugins.zip.tmp: 1900 files added (on-disk size: 7775.4 KB)
0009.693 (0) Zip: backup_2017-12-15-1442_Jetli_Transfer_a29dbc7c4302-plugins.zip.tmp: 2000 files added (on-disk size: 7775.4 KB)
0009.697 (0) Adding batch to zip file (UpdraftPlus_BinZip): over 500 files added on this batch (5.2 MB, 8795 files batched, 501 (2004) added so far); re-opening (prior size: 7775.4 KB)
0010.735 (0) backup_2017-12-15-1442_Jetli_Transfer_a29dbc7c4302-plugins.zip.tmp: size is now: 9.70 MB
0010.752 (0) Zip: backup_2017-12-15-1442_Jetli_Transfer_a29dbc7c4302-plugins.zip.tmp: 2100 files added (on-disk size: 9955.1 KB)
0010.763 (0) Zip: backup_2017-12-15-1442_Jetli_Transfer_a29dbc7c4302-plugins.zip.tmp: 2200 files added (on-disk size: 9955.1 KB)
0010.773 (0) Zip: backup_2017-12-15-1442_Jetli_Transfer_a29dbc7c4302-plugins.zip.tmp: 2300 files added (on-disk size: 9955.1 KB)
0010.784 (0) Zip: backup_2017-12-15-1442_Jetli_Transfer_a29dbc7c4302-plugins.zip.tmp: 2400 files added (on-disk size: 9955.1 KB)
0010.794 (0) Zip: backup_2017-12-15-1442_Jetli_Transfer_a29dbc7c4302-plugins.zip.tmp: 2500 files added (on-disk size: 9955.1 KB)
0010.800 (0) Adding batch to zip file (UpdraftPlus_BinZip): over 500 files added on this batch (5.5 MB, 8795 files batched, 501 (2505) added so far); re-opening (prior size: 9955.1 KB)
0012.377 (0) Zip: backup_2017-12-15-1442_Jetli_Transfer_a29dbc7c4302-plugins.zip.tmp: 2600 files added (on-disk size: 11522.6 KB)
0012.385 (0) Zip: backup_2017-12-15-1442_Jetli_Transfer_a29dbc7c4302-plugins.zip.tmp: 2700 files added (on-disk size: 11522.6 KB)
0012.393 (0) Zip: backup_2017-12-15-1442_Jetli_Transfer_a29dbc7c4302-plugins.zip.tmp: 2800 files added (on-disk size: 11522.6 KB)
0012.401 (0) Zip: backup_2017-12-15-1442_Jetli_Transfer_a29dbc7c4302-plugins.zip.tmp: 2900 files added (on-disk size: 11522.6 KB)
0012.409 (0) Zip: backup_2017-12-15-1442_Jetli_Transfer_a29dbc7c4302-plugins.zip.tmp: 3000 files added (on-disk size: 11522.6 KB)
0012.413 (0) Adding batch to zip file (UpdraftPlus_BinZip): over 500 files added on this batch (6.5 MB, 8795 files batched, 501 (3006) added so far); re-opening (prior size: 11522.6 KB)
0014.481 (0) backup_2017-12-15-1442_Jetli_Transfer_a29dbc7c4302-plugins.zip.tmp: size is now: 14.20 MB
0014.496 (0) Zip: backup_2017-12-15-1442_Jetli_Transfer_a29dbc7c4302-plugins.zip.tmp: 3100 files added (on-disk size: 14540 KB)
0014.504 (0) Zip: backup_2017-12-15-1442_Jetli_Transfer_a29dbc7c4302-plugins.zip.tmp: 3200 files added (on-disk size: 14540 KB)
0014.512 (0) Zip: backup_2017-12-15-1442_Jetli_Transfer_a29dbc7c4302-plugins.zip.tmp: 3300 files added (on-disk size: 14540 KB)
0014.520 (0) Zip: backup_2017-12-15-1442_Jetli_Transfer_a29dbc7c4302-plugins.zip.tmp: 3400 files added (on-disk size: 14540 KB)
0014.528 (0) Zip: backup_2017-12-15-1442_Jetli_Transfer_a29dbc7c4302-plugins.zip.tmp: 3500 files added (on-disk size: 14540 KB)
0014.532 (0) Adding batch to zip file (UpdraftPlus_BinZip): over 500 files added on this batch (6.6 MB, 8795 files batched, 501 (3507) added so far); re-opening (prior size: 14540 KB)
0015.632 (0) Zip: backup_2017-12-15-1442_Jetli_Transfer_a29dbc7c4302-plugins.zip.tmp: 3600 files added (on-disk size: 16928 KB)
0015.641 (0) Zip: backup_2017-12-15-1442_Jetli_Transfer_a29dbc7c4302-plugins.zip.tmp: 3700 files added (on-disk size: 16928 KB)
0015.649 (0) Zip: backup_2017-12-15-1442_Jetli_Transfer_a29dbc7c4302-plugins.zip.tmp: 3800 files added (on-disk size: 16928 KB)
0015.657 (0) Zip: backup_2017-12-15-1442_Jetli_Transfer_a29dbc7c4302-plugins.zip.tmp: 3900 files added (on-disk size: 16928 KB)
0015.665 (0) Zip: backup_2017-12-15-1442_Jetli_Transfer_a29dbc7c4302-plugins.zip.tmp: 4000 files added (on-disk size: 16928 KB)
0015.669 (0) Adding batch to zip file (UpdraftPlus_BinZip): over 500 files added on this batch (9.7 MB, 8795 files batched, 501 (4008) added so far); re-opening (prior size: 16928 KB)
0017.136 (0) Zip: backup_2017-12-15-1442_Jetli_Transfer_a29dbc7c4302-plugins.zip.tmp: 4100 files added (on-disk size: 19839.4 KB)
0017.145 (0) Zip: backup_2017-12-15-1442_Jetli_Transfer_a29dbc7c4302-plugins.zip.tmp: 4200 files added (on-disk size: 19839.4 KB)
0017.154 (0) Zip: backup_2017-12-15-1442_Jetli_Transfer_a29dbc7c4302-plugins.zip.tmp: 4300 files added (on-disk size: 19839.4 KB)
0017.165 (0) Zip: backup_2017-12-15-1442_Jetli_Transfer_a29dbc7c4302-plugins.zip.tmp: 4400 files added (on-disk size: 19839.4 KB)
0017.173 (0) Zip: backup_2017-12-15-1442_Jetli_Transfer_a29dbc7c4302-plugins.zip.tmp: 4500 files added (on-disk size: 19839.4 KB)
0017.177 (0) Adding batch to zip file (UpdraftPlus_BinZip): over 500 files added on this batch (6.8 MB, 8795 files batched, 501 (4509) added so far); re-opening (prior size: 19839.4 KB)
0018.886 (0) Zip: backup_2017-12-15-1442_Jetli_Transfer_a29dbc7c4302-plugins.zip.tmp: 4600 files added (on-disk size: 21963.1 KB)
0018.897 (0) Zip: backup_2017-12-15-1442_Jetli_Transfer_a29dbc7c4302-plugins.zip.tmp: 4700 files added (on-disk size: 21963.1 KB)
0018.908 (0) Zip: backup_2017-12-15-1442_Jetli_Transfer_a29dbc7c4302-plugins.zip.tmp: 4800 files added (on-disk size: 21963.1 KB)
0018.919 (0) Zip: backup_2017-12-15-1442_Jetli_Transfer_a29dbc7c4302-plugins.zip.tmp: 4900 files added (on-disk size: 21963.1 KB)
0018.930 (0) Zip: backup_2017-12-15-1442_Jetli_Transfer_a29dbc7c4302-plugins.zip.tmp: 5000 files added (on-disk size: 21963.1 KB)
0018.936 (0) Adding batch to zip file (UpdraftPlus_BinZip): over 500 files added on this batch (6.2 MB, 8795 files batched, 501 (5010) added so far); re-opening (prior size: 21963.1 KB)
0021.775 (0) Zip: backup_2017-12-15-1442_Jetli_Transfer_a29dbc7c4302-plugins.zip.tmp: 5100 files added (on-disk size: 26225.3 KB)
0021.786 (0) Zip: backup_2017-12-15-1442_Jetli_Transfer_a29dbc7c4302-plugins.zip.tmp: 5200 files added (on-disk size: 26225.3 KB)
0021.795 (0) Zip: backup_2017-12-15-1442_Jetli_Transfer_a29dbc7c4302-plugins.zip.tmp: 5300 files added (on-disk size: 26225.3 KB)
0021.805 (0) Zip: backup_2017-12-15-1442_Jetli_Transfer_a29dbc7c4302-plugins.zip.tmp: 5400 files added (on-disk size: 26225.3 KB)
0021.813 (0) Zip: backup_2017-12-15-1442_Jetli_Transfer_a29dbc7c4302-plugins.zip.tmp: 5500 files added (on-disk size: 26225.3 KB)
0021.818 (0) Adding batch to zip file (UpdraftPlus_BinZip): over 500 files added on this batch (1.9 MB, 8795 files batched, 501 (5511) added so far); re-opening (prior size: 26225.3 KB)
0023.702 (0) Zip: backup_2017-12-15-1442_Jetli_Transfer_a29dbc7c4302-plugins.zip.tmp: 5600 files added (on-disk size: 27298.5 KB)
0023.713 (0) Zip: backup_2017-12-15-1442_Jetli_Transfer_a29dbc7c4302-plugins.zip.tmp: 5700 files added (on-disk size: 27298.5 KB)
0023.721 (0) Zip: backup_2017-12-15-1442_Jetli_Transfer_a29dbc7c4302-plugins.zip.tmp: 5800 files added (on-disk size: 27298.5 KB)
0023.729 (0) Zip: backup_2017-12-15-1442_Jetli_Transfer_a29dbc7c4302-plugins.zip.tmp: 5900 files added (on-disk size: 27298.5 KB)
0023.737 (0) Zip: backup_2017-12-15-1442_Jetli_Transfer_a29dbc7c4302-plugins.zip.tmp: 6000 files added (on-disk size: 27298.5 KB)
0023.742 (0) Adding batch to zip file (UpdraftPlus_BinZip): over 500 files added on this batch (0.2 MB, 8795 files batched, 501 (6012) added so far); re-opening (prior size: 27298.5 KB)
0025.569 (0) Zip: backup_2017-12-15-1442_Jetli_Transfer_a29dbc7c4302-plugins.zip.tmp: 6100 files added (on-disk size: 27563.5 KB)
0025.580 (0) Zip: backup_2017-12-15-1442_Jetli_Transfer_a29dbc7c4302-plugins.zip.tmp: 6200 files added (on-disk size: 27563.5 KB)
0025.591 (0) Zip: backup_2017-12-15-1442_Jetli_Transfer_a29dbc7c4302-plugins.zip.tmp: 6300 files added (on-disk size: 27563.5 KB)
0025.602 (0) Zip: backup_2017-12-15-1442_Jetli_Transfer_a29dbc7c4302-plugins.zip.tmp: 6400 files added (on-disk size: 27563.5 KB)
0025.613 (0) Zip: backup_2017-12-15-1442_Jetli_Transfer_a29dbc7c4302-plugins.zip.tmp: 6500 files added (on-disk size: 27563.5 KB)
0025.619 (0) Adding batch to zip file (UpdraftPlus_BinZip): over 500 files added on this batch (6 MB, 8795 files batched, 501 (6513) added so far); re-opening (prior size: 27563.5 KB)
0027.566 (0) Zip: backup_2017-12-15-1442_Jetli_Transfer_a29dbc7c4302-plugins.zip.tmp: 6600 files added (on-disk size: 29899.3 KB)
0027.575 (0) Zip: backup_2017-12-15-1442_Jetli_Transfer_a29dbc7c4302-plugins.zip.tmp: 6700 files added (on-disk size: 29899.3 KB)
0027.584 (0) Zip: backup_2017-12-15-1442_Jetli_Transfer_a29dbc7c4302-plugins.zip.tmp: 6800 files added (on-disk size: 29899.3 KB)
0027.592 (0) Zip: backup_2017-12-15-1442_Jetli_Transfer_a29dbc7c4302-plugins.zip.tmp: 6900 files added (on-disk size: 29899.3 KB)
0027.600 (0) Zip: backup_2017-12-15-1442_Jetli_Transfer_a29dbc7c4302-plugins.zip.tmp: 7000 files added (on-disk size: 29899.3 KB)
0027.605 (0) Adding batch to zip file (UpdraftPlus_BinZip): over 500 files added on this batch (13.3 MB, 8795 files batched, 501 (7014) added so far); re-opening (prior size: 29899.3 KB)
0029.176 (0) Zip: backup_2017-12-15-1442_Jetli_Transfer_a29dbc7c4302-plugins.zip.tmp: 7100 files added (on-disk size: 35743.8 KB)
0029.189 (0) Zip: backup_2017-12-15-1442_Jetli_Transfer_a29dbc7c4302-plugins.zip.tmp: 7200 files added (on-disk size: 35743.8 KB)
0029.201 (0) Zip: backup_2017-12-15-1442_Jetli_Transfer_a29dbc7c4302-plugins.zip.tmp: 7300 files added (on-disk size: 35743.8 KB)
0029.209 (0) Zip: backup_2017-12-15-1442_Jetli_Transfer_a29dbc7c4302-plugins.zip.tmp: 7400 files added (on-disk size: 35743.8 KB)
0029.217 (0) Zip: backup_2017-12-15-1442_Jetli_Transfer_a29dbc7c4302-plugins.zip.tmp: 7500 files added (on-disk size: 35743.8 KB)
0029.222 (0) Adding batch to zip file (UpdraftPlus_BinZip): over 500 files added on this batch (11.1 MB, 8795 files batched, 501 (7515) added so far); re-opening (prior size: 35743.8 KB)
0031.527 (0) Zip: backup_2017-12-15-1442_Jetli_Transfer_a29dbc7c4302-plugins.zip.tmp: 7600 files added (on-disk size: 40307.3 KB)
0031.540 (0) Zip: backup_2017-12-15-1442_Jetli_Transfer_a29dbc7c4302-plugins.zip.tmp: 7700 files added (on-disk size: 40307.3 KB)
0031.551 (0) Zip: backup_2017-12-15-1442_Jetli_Transfer_a29dbc7c4302-plugins.zip.tmp: 7800 files added (on-disk size: 40307.3 KB)
0031.560 (0) Zip: backup_2017-12-15-1442_Jetli_Transfer_a29dbc7c4302-plugins.zip.tmp: 7900 files added (on-disk size: 40307.3 KB)
0031.569 (0) Zip: backup_2017-12-15-1442_Jetli_Transfer_a29dbc7c4302-plugins.zip.tmp: 8000 files added (on-disk size: 40307.3 KB)
0031.574 (0) Adding batch to zip file (UpdraftPlus_BinZip): over 500 files added on this batch (6.9 MB, 8795 files batched, 501 (8016) added so far); re-opening (prior size: 40307.3 KB)
0032.499 (0) Zip: backup_2017-12-15-1442_Jetli_Transfer_a29dbc7c4302-plugins.zip.tmp: 8100 files added (on-disk size: 42959.9 KB)
0032.509 (0) Zip: backup_2017-12-15-1442_Jetli_Transfer_a29dbc7c4302-plugins.zip.tmp: 8200 files added (on-disk size: 42959.9 KB)
0032.518 (0) Zip: backup_2017-12-15-1442_Jetli_Transfer_a29dbc7c4302-plugins.zip.tmp: 8300 files added (on-disk size: 42959.9 KB)
0032.528 (0) Zip: backup_2017-12-15-1442_Jetli_Transfer_a29dbc7c4302-plugins.zip.tmp: 8400 files added (on-disk size: 42959.9 KB)
0032.538 (0) Zip: backup_2017-12-15-1442_Jetli_Transfer_a29dbc7c4302-plugins.zip.tmp: 8500 files added (on-disk size: 42959.9 KB)
0032.543 (0) Adding batch to zip file (UpdraftPlus_BinZip): over 500 files added on this batch (7.7 MB, 8795 files batched, 501 (8517) added so far); re-opening (prior size: 42959.9 KB)
0033.268 (0) Zip: backup_2017-12-15-1442_Jetli_Transfer_a29dbc7c4302-plugins.zip.tmp: 8600 files added (on-disk size: 45384.7 KB)
0033.277 (0) Zip: backup_2017-12-15-1442_Jetli_Transfer_a29dbc7c4302-plugins.zip.tmp: 8700 files added (on-disk size: 45384.7 KB)
0035.426 (0) Created plugins zip (0) - 48142.7 KB in 34.8 s (1384.3 KB/s) (sha1: bec9cad51642648fdc0aaad87f8808e7d02538ef, sha256: 866abeead171392b549f3ba42d183c6800bf8845bde7fa449789e594bee5871a)
0035.439 (0) Beginning creation of dump of themes (split every: 400 MB)
0035.772 (0) Total entities for the zip file: 63 directories, 433 files (0 skipped as non-modified), 7.1 MB
0035.788 (0) Zip: backup_2017-12-15-1442_Jetli_Transfer_a29dbc7c4302-themes.zip.tmp: 100 files added (on-disk size: 0 KB)
0035.798 (0) Zip: backup_2017-12-15-1442_Jetli_Transfer_a29dbc7c4302-themes.zip.tmp: 200 files added (on-disk size: 0 KB)
0035.806 (0) Zip: backup_2017-12-15-1442_Jetli_Transfer_a29dbc7c4302-themes.zip.tmp: 300 files added (on-disk size: 0 KB)
0035.814 (0) Zip: backup_2017-12-15-1442_Jetli_Transfer_a29dbc7c4302-themes.zip.tmp: 400 files added (on-disk size: 0 KB)
0037.022 (0) backup_2017-12-15-1442_Jetli_Transfer_a29dbc7c4302-themes.zip.tmp: size is now: 4.50 MB
0037.160 (0) Created themes zip (0) - 4595.6 KB in 1.5 s (3085 KB/s) (sha1: 7d65821284ba4ec5ae987a62144ba9c2b1fe0117, sha256: 32aaacb1508750ec8ce8f186323f57c1e00152e047050582c7f8631e4fdd3cc7)
0037.165 (0) No backup of uploads: excluded by user's options
0037.174 (0) Beginning backup of other directories found in the content directory (index: 0)
0037.179 (0) Exclusion option setting (others): upgrade,cache,updraft,backup*,*backups,mysql.sql,debug.log
0037.184 (0) Looking for candidates to back up in: /home1/rudyroc/public_html/wp-content
0037.190 (0) finding files: index.php: adding to list (1)
0037.195 (0) finding files: updraft: skipping: this is the updraft directory
0037.201 (0) finding files: wphb-cache: adding to list (2)
0037.206 (0) finding files: upgrade: skipping: excluded by options
0037.211 (0) finding files: plugins: skipping: this is the plugins directory
0037.216 (0) finding files: uploads: skipping: this is the uploads directory
0037.222 (0) finding files: themes: skipping: this is the themes directory
0037.453 (0) Total entities for the zip file: 2 directories, 4 files (0 skipped as non-modified), 0 MB
0037.486 (0) backup_2017-12-15-1442_Jetli_Transfer_a29dbc7c4302-others.zip.tmp: size is now: 0.00 MB
0037.511 (0) Created others zip (0) - 1.2 KB in 0.1 s (16.8 KB/s) (sha1: ec3e85fba890ef33466843411d5a94d936021d8a, sha256: 417881436e65ab3e6dc9f18fd921a7bba15a7ee3d628d5977a2dfc4c9c70ad3d)
0037.532 (0) Saving backup status to database (elements: 6)
0037.546 (0) Beginning creation of database dump (WordPress DB)
0037.557 (0) Testing: /usr/bin/mysqldump
0037.590 (0) Output: /*!40103 SET @OLD_TIME_ZONE=@@TIME_ZONE */;\n/*!40103 SET TIME_ZONE='+00:00' */;\n/*!40014 SET @OLD_UNIQUE_CHECKS=@@UNIQUE_CHECKS, UNIQUE_CHECKS=0 */;\n/*!40014 SET @OLD_FOREIGN_KEY_CHECKS=@@FOREIGN_KEY_CHECKS, FOREIGN_KEY_CHECKS=0 */;\n/*!40101 SET @OLD_SQL_MODE=@@SQL_MODE, SQL_MODE='NO_AUTO_VALUE_ON_ZERO' */;\n/*!40111 SET @OLD_SQL_NOTES=@@SQL_NOTES, SQL_NOTES=0 */;\nDROP TABLE IF EXISTS `sg_options`;\n/*!40101 SET @saved_cs_client     = @@character_set_client */;\n/*!40101 SET character_set_client = utf8 */;\nCRE (truncated - 1199 bytes total)
0037.596 (0) Working binary mysqldump found: /usr/bin/mysqldump
0037.641 (0) Table sg_options: Total expected rows (approximate): 653
0037.786 (0) Table sg_options: Total rows added: 649 in 0.14 seconds
0037.791 (0) Table sg_options: finishing file (backup_2017-12-15-1442_Jetli_Transfer_a29dbc7c4302-db-table-sg_options.table.gz - 242.3 KB)
0037.807 (0) Table sg_users: Total expected rows (approximate): 39
0037.817 (0) Table sg_users: Total rows added: 39 in 0.01 seconds
0037.824 (0) Table sg_users: finishing file (backup_2017-12-15-1442_Jetli_Transfer_a29dbc7c4302-db-table-sg_users.table.gz - 2.8 KB)
0037.839 (0) Table sg_usermeta: Total expected rows (approximate): 953
0037.876 (0) Table sg_usermeta: Total rows added: 953 in 0.03 seconds
0037.881 (0) Table sg_usermeta: finishing file (backup_2017-12-15-1442_Jetli_Transfer_a29dbc7c4302-db-table-sg_usermeta.table.gz - 12.9 KB)
0037.898 (0) Table sg_commentmeta: Total expected rows (approximate): 4
0037.906 (0) Table sg_commentmeta: Total rows added: 4 in 0.00 seconds
0037.911 (0) Table sg_commentmeta: finishing file (backup_2017-12-15-1442_Jetli_Transfer_a29dbc7c4302-db-table-sg_commentmeta.table.gz - 0.5 KB)
0037.927 (0) Table sg_comments: Total expected rows (approximate): 150
0037.953 (0) Table sg_comments: Total rows added: 150 in 0.02 seconds
0037.958 (0) Table sg_comments: finishing file (backup_2017-12-15-1442_Jetli_Transfer_a29dbc7c4302-db-table-sg_comments.table.gz - 3.3 KB)
0037.978 (0) Table sg_links: Total expected rows (approximate): 0
0037.985 (0) Table sg_links: Total rows added: 0 in 0.00 seconds
0037.990 (0) Table sg_links: finishing file (backup_2017-12-15-1442_Jetli_Transfer_a29dbc7c4302-db-table-sg_links.table.gz - 0.4 KB)
0038.006 (0) Table sg_postmeta: Total expected rows (approximate): 9091
0038.232 (0) Table sg_postmeta: binary mysqldump finished (writes: 35) in 0.22 seconds
0038.239 (0) Table sg_postmeta: finishing file (backup_2017-12-15-1442_Jetli_Transfer_a29dbc7c4302-db-table-sg_postmeta.table.gz - 326.1 KB)
0038.255 (0) Table sg_posts: Total expected rows (approximate): 737
0038.414 (0) Table sg_posts: Total rows added: 737 in 0.15 seconds
0038.420 (0) Table sg_posts: finishing file (backup_2017-12-15-1442_Jetli_Transfer_a29dbc7c4302-db-table-sg_posts.table.gz - 65.6 KB)
0038.436 (0) Table sg_term_relationships: Total expected rows (approximate): 351
0038.447 (0) Table sg_term_relationships: Total rows added: 351 in 0.01 seconds
0038.452 (0) Table sg_term_relationships: finishing file (backup_2017-12-15-1442_Jetli_Transfer_a29dbc7c4302-db-table-sg_term_relationships.table.gz - 1.4 KB)
0038.468 (0) Table sg_term_taxonomy: Total expected rows (approximate): 133
0038.478 (0) Table sg_term_taxonomy: Total rows added: 133 in 0.01 seconds
0038.484 (0) Table sg_term_taxonomy: finishing file (backup_2017-12-15-1442_Jetli_Transfer_a29dbc7c4302-db-table-sg_term_taxonomy.table.gz - 1.3 KB)
0038.498 (0) Table sg_termmeta: Total expected rows (approximate): 81
0038.506 (0) Table sg_termmeta: Total rows added: 81 in 0.00 seconds
0038.511 (0) Table sg_termmeta: finishing file (backup_2017-12-15-1442_Jetli_Transfer_a29dbc7c4302-db-table-sg_termmeta.table.gz - 0.9 KB)
0038.526 (0) Table sg_terms: Total expected rows (approximate): 133
0038.536 (0) Table sg_terms: Total rows added: 133 in 0.01 seconds
0038.541 (0) Table sg_terms: finishing file (backup_2017-12-15-1442_Jetli_Transfer_a29dbc7c4302-db-table-sg_terms.table.gz - 2 KB)
0038.557 (0) Table sg_woocommerce_order_itemmeta: Total expected rows (approximate): 1107
0038.594 (0) Table sg_woocommerce_order_itemmeta: Total rows added: 1107 in 0.03 seconds
0038.600 (0) Table sg_woocommerce_order_itemmeta: finishing file (backup_2017-12-15-1442_Jetli_Transfer_a29dbc7c4302-db-table-sg_woocommerce_order_itemmeta.table.gz - 8.4 KB)
0038.620 (0) Table sg_woocommerce_payment_tokenmeta: Total expected rows (approximate): 0
0038.626 (0) Table sg_woocommerce_payment_tokenmeta: Total rows added: 0 in 0.00 seconds
0038.631 (0) Table sg_woocommerce_payment_tokenmeta: finishing file (backup_2017-12-15-1442_Jetli_Transfer_a29dbc7c4302-db-table-sg_woocommerce_payment_tokenmeta.table.gz - 0.4 KB)
0038.646 (0) Table sg_defender_lockout: Total expected rows (approximate): 0
0038.652 (0) Table sg_defender_lockout: Total rows added: 0 in 0.00 seconds
0038.656 (0) Table sg_defender_lockout: finishing file (backup_2017-12-15-1442_Jetli_Transfer_a29dbc7c4302-db-table-sg_defender_lockout.table.gz - 0.4 KB)
0038.676 (0) Table sg_defender_lockout_log: Total expected rows (approximate): 0
0038.682 (0) Table sg_defender_lockout_log: Total rows added: 0 in 0.00 seconds
0038.687 (0) Table sg_defender_lockout_log: finishing file (backup_2017-12-15-1442_Jetli_Transfer_a29dbc7c4302-db-table-sg_defender_lockout_log.table.gz - 0.4 KB)
0038.706 (0) Table sg_ecp_x_category: Total expected rows (approximate): 4
0038.714 (0) Table sg_ecp_x_category: Total rows added: 4 in 0.00 seconds
0038.719 (0) Table sg_ecp_x_category: finishing file (backup_2017-12-15-1442_Jetli_Transfer_a29dbc7c4302-db-table-sg_ecp_x_category.table.gz - 0.4 KB)
0038.734 (0) Table sg_masterslider_options: Total expected rows (approximate): 6
0038.742 (0) Table sg_masterslider_options: Total rows added: 6 in 0.00 seconds
0038.747 (0) Table sg_masterslider_options: finishing file (backup_2017-12-15-1442_Jetli_Transfer_a29dbc7c4302-db-table-sg_masterslider_options.table.gz - 6.4 KB)
0038.776 (0) Table sg_masterslider_sliders: Total expected rows (approximate): 2
0038.794 (0) Table sg_masterslider_sliders: Total rows added: 2 in 0.01 seconds
0038.801 (0) Table sg_masterslider_sliders: finishing file (backup_2017-12-15-1442_Jetli_Transfer_a29dbc7c4302-db-table-sg_masterslider_sliders.table.gz - 6 KB)
0038.823 (0) Table sg_revslider_css: Total expected rows (approximate): 109
0038.841 (0) Table sg_revslider_css: Total rows added: 109 in 0.01 seconds
0038.847 (0) Table sg_revslider_css: finishing file (backup_2017-12-15-1442_Jetli_Transfer_a29dbc7c4302-db-table-sg_revslider_css.table.gz - 4.8 KB)
0038.870 (0) Table sg_revslider_layer_animations: Total expected rows (approximate): 0
0038.878 (0) Table sg_revslider_layer_animations: Total rows added: 0 in 0.00 seconds
0038.884 (0) Table sg_revslider_layer_animations: finishing file (backup_2017-12-15-1442_Jetli_Transfer_a29dbc7c4302-db-table-sg_revslider_layer_animations.table.gz - 0.3 KB)
0038.908 (0) Table sg_revslider_navigations: Total expected rows (approximate): 0
0038.915 (0) Table sg_revslider_navigations: Total rows added: 0 in 0.00 seconds
0038.922 (0) Table sg_revslider_navigations: finishing file (backup_2017-12-15-1442_Jetli_Transfer_a29dbc7c4302-db-table-sg_revslider_navigations.table.gz - 0.3 KB)
0038.946 (0) Table sg_revslider_sliders: Total expected rows (approximate): 1
0038.954 (0) Table sg_revslider_sliders: Total rows added: 1 in 0.00 seconds
0038.961 (0) Table sg_revslider_sliders: finishing file (backup_2017-12-15-1442_Jetli_Transfer_a29dbc7c4302-db-table-sg_revslider_sliders.table.gz - 2.9 KB)
0038.984 (0) Table sg_revslider_slides: Total expected rows (approximate): 1
0038.997 (0) Table sg_revslider_slides: Total rows added: 1 in 0.01 seconds
0039.004 (0) Table sg_revslider_slides: finishing file (backup_2017-12-15-1442_Jetli_Transfer_a29dbc7c4302-db-table-sg_revslider_slides.table.gz - 7.2 KB)
0039.024 (0) Table sg_revslider_static_slides: Total expected rows (approximate): 1
0039.031 (0) Table sg_revslider_static_slides: Total rows added: 1 in 0.00 seconds
0039.037 (0) Table sg_revslider_static_slides: finishing file (backup_2017-12-15-1442_Jetli_Transfer_a29dbc7c4302-db-table-sg_revslider_static_slides.table.gz - 1.7 KB)
0039.053 (0) Table sg_smush_dir_images: Total expected rows (approximate): 0
0039.059 (0) Table sg_smush_dir_images: Total rows added: 0 in 0.00 seconds
0039.064 (0) Table sg_smush_dir_images: finishing file (backup_2017-12-15-1442_Jetli_Transfer_a29dbc7c4302-db-table-sg_smush_dir_images.table.gz - 0.4 KB)
0039.085 (0) Table sg_woocommerce_api_keys: Total expected rows (approximate): 0
0039.091 (0) Table sg_woocommerce_api_keys: Total rows added: 0 in 0.00 seconds
0039.095 (0) Table sg_woocommerce_api_keys: finishing file (backup_2017-12-15-1442_Jetli_Transfer_a29dbc7c4302-db-table-sg_woocommerce_api_keys.table.gz - 0.4 KB)
0039.115 (0) Table sg_woocommerce_attribute_taxonomies: Total expected rows (approximate): 1
0039.121 (0) Table sg_woocommerce_attribute_taxonomies: Total rows added: 1 in 0.00 seconds
0039.126 (0) Table sg_woocommerce_attribute_taxonomies: finishing file (backup_2017-12-15-1442_Jetli_Transfer_a29dbc7c4302-db-table-sg_woocommerce_attribute_taxonomies.table.gz - 0.4 KB)
0039.141 (0) Table sg_woocommerce_downloadable_product_permissions: Total expected rows (approximate): 0
0039.147 (0) Table sg_woocommerce_downloadable_product_permissions: Total rows added: 0 in 0.00 seconds
0039.152 (0) Table sg_woocommerce_downloadable_product_permissions: finishing file (backup_2017-12-15-1442_Jetli_Transfer_a29dbc7c4302-db-table-sg_woocommerce_downloadable_product_permissions.table.gz - 0.5 KB)
0039.173 (0) Table sg_woocommerce_log: Total expected rows (approximate): 0
0039.179 (0) Table sg_woocommerce_log: Total rows added: 0 in 0.00 seconds
0039.184 (0) Table sg_woocommerce_log: finishing file (backup_2017-12-15-1442_Jetli_Transfer_a29dbc7c4302-db-table-sg_woocommerce_log.table.gz - 0.4 KB)
0039.199 (0) Table sg_woocommerce_order_items: Total expected rows (approximate): 159
0039.211 (0) Table sg_woocommerce_order_items: Total rows added: 159 in 0.01 seconds
0039.218 (0) Table sg_woocommerce_order_items: finishing file (backup_2017-12-15-1442_Jetli_Transfer_a29dbc7c4302-db-table-sg_woocommerce_order_items.table.gz - 1.5 KB)
0039.241 (0) Table sg_woocommerce_payment_tokens: Total expected rows (approximate): 0
0039.247 (0) Table sg_woocommerce_payment_tokens: Total rows added: 0 in 0.00 seconds
0039.253 (0) Table sg_woocommerce_payment_tokens: finishing file (backup_2017-12-15-1442_Jetli_Transfer_a29dbc7c4302-db-table-sg_woocommerce_payment_tokens.table.gz - 0.4 KB)
0039.269 (0) Table sg_woocommerce_sessions: Total expected rows (approximate): 6
0039.281 (0) Table sg_woocommerce_sessions: Total rows added: 6 in 0.01 seconds
0039.286 (0) Table sg_woocommerce_sessions: finishing file (backup_2017-12-15-1442_Jetli_Transfer_a29dbc7c4302-db-table-sg_woocommerce_sessions.table.gz - 2.3 KB)
0039.304 (0) Table sg_woocommerce_shipping_zone_locations: Total expected rows (approximate): 0
0039.310 (0) Table sg_woocommerce_shipping_zone_locations: Total rows added: 0 in 0.00 seconds
0039.315 (0) Table sg_woocommerce_shipping_zone_locations: finishing file (backup_2017-12-15-1442_Jetli_Transfer_a29dbc7c4302-db-table-sg_woocommerce_shipping_zone_locations.table.gz - 0.4 KB)
0039.329 (0) Table sg_woocommerce_shipping_zone_methods: Total expected rows (approximate): 0
0039.335 (0) Table sg_woocommerce_shipping_zone_methods: Total rows added: 0 in 0.00 seconds
0039.339 (0) Table sg_woocommerce_shipping_zone_methods: finishing file (backup_2017-12-15-1442_Jetli_Transfer_a29dbc7c4302-db-table-sg_woocommerce_shipping_zone_methods.table.gz - 0.4 KB)
0039.354 (0) Table sg_woocommerce_shipping_zones: Total expected rows (approximate): 0
0039.359 (0) Table sg_woocommerce_shipping_zones: Total rows added: 0 in 0.00 seconds
0039.364 (0) Table sg_woocommerce_shipping_zones: finishing file (backup_2017-12-15-1442_Jetli_Transfer_a29dbc7c4302-db-table-sg_woocommerce_shipping_zones.table.gz - 0.3 KB)
0039.379 (0) Table sg_woocommerce_tax_rate_locations: Total expected rows (approximate): 0
0039.385 (0) Table sg_woocommerce_tax_rate_locations: Total rows added: 0 in 0.00 seconds
0039.390 (0) Table sg_woocommerce_tax_rate_locations: finishing file (backup_2017-12-15-1442_Jetli_Transfer_a29dbc7c4302-db-table-sg_woocommerce_tax_rate_locations.table.gz - 0.4 KB)
0039.407 (0) Table sg_woocommerce_tax_rates: Total expected rows (approximate): 0
0039.413 (0) Table sg_woocommerce_tax_rates: Total rows added: 0 in 0.00 seconds
0039.419 (0) Table sg_woocommerce_tax_rates: finishing file (backup_2017-12-15-1442_Jetli_Transfer_a29dbc7c4302-db-table-sg_woocommerce_tax_rates.table.gz - 0.4 KB)
0039.435 (0) backup_2017-12-15-1442_Jetli_Transfer_a29dbc7c4302-db-table-sg_options.table.gz (1/38): adding to final database dump
0039.536 (0) backup_2017-12-15-1442_Jetli_Transfer_a29dbc7c4302-db-table-sg_users.table.gz (2/38): adding to final database dump
0039.543 (0) backup_2017-12-15-1442_Jetli_Transfer_a29dbc7c4302-db-table-sg_usermeta.table.gz (3/38): adding to final database dump
0039.561 (0) backup_2017-12-15-1442_Jetli_Transfer_a29dbc7c4302-db-table-sg_commentmeta.table.gz (4/38): adding to final database dump
0039.566 (0) backup_2017-12-15-1442_Jetli_Transfer_a29dbc7c4302-db-table-sg_comments.table.gz (5/38): adding to final database dump
0039.574 (0) backup_2017-12-15-1442_Jetli_Transfer_a29dbc7c4302-db-table-sg_links.table.gz (6/38): adding to final database dump
0039.580 (0) backup_2017-12-15-1442_Jetli_Transfer_a29dbc7c4302-db-table-sg_postmeta.table.gz (7/38): adding to final database dump
0039.732 (0) backup_2017-12-15-1442_Jetli_Transfer_a29dbc7c4302-db-table-sg_posts.table.gz (8/38): adding to final database dump
0039.777 (0) backup_2017-12-15-1442_Jetli_Transfer_a29dbc7c4302-db-table-sg_term_relationships.table.gz (9/38): adding to final database dump
0039.787 (0) backup_2017-12-15-1442_Jetli_Transfer_a29dbc7c4302-db-table-sg_term_taxonomy.table.gz (10/38): adding to final database dump
0039.793 (0) backup_2017-12-15-1442_Jetli_Transfer_a29dbc7c4302-db-table-sg_termmeta.table.gz (11/38): adding to final database dump
0039.799 (0) backup_2017-12-15-1442_Jetli_Transfer_a29dbc7c4302-db-table-sg_terms.table.gz (12/38): adding to final database dump
0039.806 (0) backup_2017-12-15-1442_Jetli_Transfer_a29dbc7c4302-db-table-sg_woocommerce_order_itemmeta.table.gz (13/38): adding to final database dump
0039.826 (0) backup_2017-12-15-1442_Jetli_Transfer_a29dbc7c4302-db-table-sg_woocommerce_payment_tokenmeta.table.gz (14/38): adding to final database dump
0039.831 (0) backup_2017-12-15-1442_Jetli_Transfer_a29dbc7c4302-db-table-sg_defender_lockout.table.gz (15/38): adding to final database dump
0039.836 (0) backup_2017-12-15-1442_Jetli_Transfer_a29dbc7c4302-db-table-sg_defender_lockout_log.table.gz (16/38): adding to final database dump
0039.841 (0) backup_2017-12-15-1442_Jetli_Transfer_a29dbc7c4302-db-table-sg_ecp_x_category.table.gz (17/38): adding to final database dump
0039.846 (0) backup_2017-12-15-1442_Jetli_Transfer_a29dbc7c4302-db-table-sg_masterslider_options.table.gz (18/38): adding to final database dump
0039.852 (0) backup_2017-12-15-1442_Jetli_Transfer_a29dbc7c4302-db-table-sg_masterslider_sliders.table.gz (19/38): adding to final database dump
0039.860 (0) backup_2017-12-15-1442_Jetli_Transfer_a29dbc7c4302-db-table-sg_revslider_css.table.gz (20/38): adding to final database dump
0039.870 (0) backup_2017-12-15-1442_Jetli_Transfer_a29dbc7c4302-db-table-sg_revslider_layer_animations.table.gz (21/38): adding to final database dump
0039.876 (0) backup_2017-12-15-1442_Jetli_Transfer_a29dbc7c4302-db-table-sg_revslider_navigations.table.gz (22/38): adding to final database dump
0039.883 (0) backup_2017-12-15-1442_Jetli_Transfer_a29dbc7c4302-db-table-sg_revslider_sliders.table.gz (23/38): adding to final database dump
0039.890 (0) backup_2017-12-15-1442_Jetli_Transfer_a29dbc7c4302-db-table-sg_revslider_slides.table.gz (24/38): adding to final database dump
0039.899 (0) backup_2017-12-15-1442_Jetli_Transfer_a29dbc7c4302-db-table-sg_revslider_static_slides.table.gz (25/38): adding to final database dump
0039.907 (0) backup_2017-12-15-1442_Jetli_Transfer_a29dbc7c4302-db-table-sg_smush_dir_images.table.gz (26/38): adding to final database dump
0039.917 (0) backup_2017-12-15-1442_Jetli_Transfer_a29dbc7c4302-db-table-sg_woocommerce_api_keys.table.gz (27/38): adding to final database dump
0039.924 (0) backup_2017-12-15-1442_Jetli_Transfer_a29dbc7c4302-db-table-sg_woocommerce_attribute_taxonomies.table.gz (28/38): adding to final database dump
0039.930 (0) backup_2017-12-15-1442_Jetli_Transfer_a29dbc7c4302-db-table-sg_woocommerce_downloadable_product_permissions.table.gz (29/38): adding to final database dump
0039.936 (0) backup_2017-12-15-1442_Jetli_Transfer_a29dbc7c4302-db-table-sg_woocommerce_log.table.gz (30/38): adding to final database dump
0039.943 (0) backup_2017-12-15-1442_Jetli_Transfer_a29dbc7c4302-db-table-sg_woocommerce_order_items.table.gz (31/38): adding to final database dump
0039.951 (0) backup_2017-12-15-1442_Jetli_Transfer_a29dbc7c4302-db-table-sg_woocommerce_payment_tokens.table.gz (32/38): adding to final database dump
0039.957 (0) backup_2017-12-15-1442_Jetli_Transfer_a29dbc7c4302-db-table-sg_woocommerce_sessions.table.gz (33/38): adding to final database dump
0039.964 (0) backup_2017-12-15-1442_Jetli_Transfer_a29dbc7c4302-db-table-sg_woocommerce_shipping_zone_locations.table.gz (34/38): adding to final database dump
0039.971 (0) backup_2017-12-15-1442_Jetli_Transfer_a29dbc7c4302-db-table-sg_woocommerce_shipping_zone_methods.table.gz (35/38): adding to final database dump
0039.978 (0) backup_2017-12-15-1442_Jetli_Transfer_a29dbc7c4302-db-table-sg_woocommerce_shipping_zones.table.gz (36/38): adding to final database dump
0039.984 (0) backup_2017-12-15-1442_Jetli_Transfer_a29dbc7c4302-db-table-sg_woocommerce_tax_rate_locations.table.gz (37/38): adding to final database dump
0039.989 (0) backup_2017-12-15-1442_Jetli_Transfer_a29dbc7c4302-db-table-sg_woocommerce_tax_rates.table.gz (38/38): adding to final database dump
0039.994 (0) backup_2017-12-15-1442_Jetli_Transfer_a29dbc7c4302-db.gz: finished writing out complete database file (672 KB)
0040.034 (0) Total database tables backed up: 38 (backup_2017-12-15-1442_Jetli_Transfer_a29dbc7c4302-db.gz, size: 714676, sha256)
0040.061 (0) backup_2017-12-15-1442_Jetli_Transfer_a29dbc7c4302-plugins.zip: plugins: This file has not yet been successfully uploaded: will queue
0040.068 (0) backup_2017-12-15-1442_Jetli_Transfer_a29dbc7c4302-themes.zip: themes: This file has not yet been successfully uploaded: will queue
0040.076 (0) backup_2017-12-15-1442_Jetli_Transfer_a29dbc7c4302-others.zip: others: This file has not yet been successfully uploaded: will queue
0040.081 (0) backup_2017-12-15-1442_Jetli_Transfer_a29dbc7c4302-db.gz: db: This file has not yet been successfully uploaded: will queue
0040.085 (0) Saving backup history. Total backup size: 52.2 MB
0040.096 (0) Requesting upload of the files that have not yet been successfully uploaded (4)
0040.114 (0) Cloud backup selection (1/1): none with instance (1/1) (last)
0040.118 (0) No remote despatch: user chose no remote backup service
0040.128 (0) Recording as successfully uploaded: backup_2017-12-15-1442_Jetli_Transfer_a29dbc7c4302-plugins.zip (0c4e26fb4a2d21446a07e4bd77214ffe)
0040.152 (0) Recording as successfully uploaded: backup_2017-12-15-1442_Jetli_Transfer_a29dbc7c4302-themes.zip (4e1773f0a56ff450a964f535ec342144)
0040.172 (0) Recording as successfully uploaded: backup_2017-12-15-1442_Jetli_Transfer_a29dbc7c4302-others.zip (5b61cf3db06ec845bfbb593a6128a013)
0040.192 (0) Recording as successfully uploaded: backup_2017-12-15-1442_Jetli_Transfer_a29dbc7c4302-db.gz (7521183c1ba3b9eb70f136e6cc12d795)
0040.212 (0) Retain: beginning examination of existing backup sets; user setting: retain_files=2, retain_db=10
0040.217 (0) Number of backup sets in history: 12; groups (db): 1
0040.221 (0) Examining (for databases) backup set with group_id=0, nonce=a29dbc7c4302, datestamp=1513348932 (Dec 15 2017 14:42:12)
0040.225 (0) This backup set is the backup set just made, so will not be deleted.
0040.225 (0) Examining (for databases) backup set with group_id=0, nonce=84b24f21cbaf, datestamp=1513295561 (Dec 14 2017 23:52:41)
0040.225 (0) This backup set remains non-empty (f=0/d=1); will retain in history
0040.230 (0) Examining (for databases) backup set with group_id=0, nonce=1b9454701ab1, datestamp=1513209201 (Dec 13 2017 23:53:21)
0040.230 (0) This backup set remains non-empty (f=0/d=1); will retain in history
0040.230 (0) Examining (for databases) backup set with group_id=0, nonce=a641bc32e058, datestamp=1513122800 (Dec 12 2017 23:53:20)
0040.230 (0) This backup set remains non-empty (f=0/d=1); will retain in history
0040.231 (0) Examining (for databases) backup set with group_id=0, nonce=9357bffa1da9, datestamp=1513036402 (Dec 11 2017 23:53:22)
0040.231 (0) This backup set remains non-empty (f=0/d=1); will retain in history
0040.231 (0) Examining (for databases) backup set with group_id=0, nonce=209b35986cba, datestamp=1512949998 (Dec 10 2017 23:53:18)
0040.231 (0) This backup set remains non-empty (f=0/d=1); will retain in history
0040.231 (0) Examining (for databases) backup set with group_id=0, nonce=ab8c50d6ff32, datestamp=1512863597 (Dec 09 2017 23:53:17)
0040.231 (0) This backup set remains non-empty (f=0/d=1); will retain in history
0040.232 (0) Examining (for databases) backup set with group_id=0, nonce=392272229985, datestamp=1512777193 (Dec 08 2017 23:53:13)
0040.232 (0) This backup set remains non-empty (f=0/d=1); will retain in history
0040.232 (0) Examining (for databases) backup set with group_id=0, nonce=2c270196ca25, datestamp=1512690795 (Dec 07 2017 23:53:15)
0040.232 (0) This backup set remains non-empty (f=0/d=1); will retain in history
0040.233 (0) Examining (for databases) backup set with group_id=0, nonce=70d81fe075bf, datestamp=1512604394 (Dec 06 2017 23:53:14)
0040.233 (0) This backup set remains non-empty (f=0/d=1); will retain in history
0040.233 (0) Examining (for databases) backup set with group_id=0, nonce=63ed5d05e96f, datestamp=1512517990 (Dec 05 2017 23:53:10)
0040.233 (0) 1512517990: db: this set includes a database (backup_2017-12-05-2353_Jetli_Transfer_63ed5d05e96f-db.gz); db count is now 10
0040.233 (0) 1512517990: db: over retain limit (10); will delete this database
0040.233 (0) Delete file: backup_2017-12-05-2353_Jetli_Transfer_63ed5d05e96f-db.gz, service=none
0040.237 (0) Deleting local copy (backup_2017-12-05-2353_Jetli_Transfer_63ed5d05e96f-db.gz)
0040.620 (0) This backup set is now empty; will remove from history
0040.625 (0) Deleting log file (log.63ed5d05e96f.txt)
0040.630 (0) Examining (for databases) backup set with group_id=0, nonce=28a04bbcb587, datestamp=1512139828 (Dec 01 2017 14:50:28)
0040.630 (0) Number of backup sets in history: 11; groups (files): 1
0040.634 (0) Examining (for files) backup set with nonce=a29dbc7c4302, datestamp=1513348932 (Dec 15 2017 14:42:12)
0040.634 (0) This backup set is the backup set just made, so will not be deleted.
0040.639 (0) This backup set is the backup set just made, so will not be deleted.
0040.639 (0) This backup set is the backup set just made, so will not be deleted.
0040.639 (0) This backup set remains non-empty (f=1/d=1); will retain in history
0040.644 (0) Examining (for files) backup set with nonce=84b24f21cbaf, datestamp=1513295561 (Dec 14 2017 23:52:41)
0040.644 (0) This backup set remains non-empty (f=0/d=1); will retain in history
0040.649 (0) Examining (for files) backup set with nonce=1b9454701ab1, datestamp=1513209201 (Dec 13 2017 23:53:21)
0040.649 (0) This backup set remains non-empty (f=0/d=1); will retain in history
0040.649 (0) Examining (for files) backup set with nonce=a641bc32e058, datestamp=1513122800 (Dec 12 2017 23:53:20)
0040.649 (0) This backup set remains non-empty (f=0/d=1); will retain in history
0040.649 (0) Examining (for files) backup set with nonce=9357bffa1da9, datestamp=1513036402 (Dec 11 2017 23:53:22)
0040.649 (0) This backup set remains non-empty (f=0/d=1); will retain in history
0040.650 (0) Examining (for files) backup set with nonce=209b35986cba, datestamp=1512949998 (Dec 10 2017 23:53:18)
0040.650 (0) This backup set remains non-empty (f=0/d=1); will retain in history
0040.650 (0) Examining (for files) backup set with nonce=ab8c50d6ff32, datestamp=1512863597 (Dec 09 2017 23:53:17)
0040.650 (0) This backup set remains non-empty (f=0/d=1); will retain in history
0040.650 (0) Examining (for files) backup set with nonce=392272229985, datestamp=1512777193 (Dec 08 2017 23:53:13)
0040.650 (0) This backup set remains non-empty (f=0/d=1); will retain in history
0040.651 (0) Examining (for files) backup set with nonce=2c270196ca25, datestamp=1512690795 (Dec 07 2017 23:53:15)
0040.651 (0) This backup set remains non-empty (f=0/d=1); will retain in history
0040.651 (0) Examining (for files) backup set with nonce=70d81fe075bf, datestamp=1512604394 (Dec 06 2017 23:53:14)
0040.651 (0) This backup set remains non-empty (f=0/d=1); will retain in history
0040.651 (0) Examining (for files) backup set with nonce=28a04bbcb587, datestamp=1512139828 (Dec 01 2017 14:50:28)
0040.651 (0) This backup set remains non-empty (f=1/d=0); will retain in history
0040.656 (0) Retain: saving new backup history (sets now: 11) and finishing retain operation
0040.673 (0) Resume backup (a29dbc7c4302, 0): finish run
0040.685 (0) Decremented the semaphore (fd) by 1
0040.690 (0) Semaphore (fd) unlocked
0040.695 (0) There were no errors in the uploads, so the 'resume' event (1) is being unscheduled
0040.714 (0) No email will/can be sent - the user has not configured an email address.
0040.719 (0) The backup apparently succeeded and is now complete
